(module fuse_holders_and_fuses:Fuse_SMD2920 (layer F.Cu) (tedit 5EB42340)
  (descr "Fuse, 2920 chip size")
  (tags "Fuse SMD2920")
  (attr smd)
  (fp_text reference R40 (at 0 -0.39 90) (layer F.SilkS)
    (effects (font (size 1 1) (thickness 0.15)))
  )
  (fp_text value "PTC 16V 5A" (at 0 4.3815) (layer F.Fab)
    (effects (font (size 1 1) (thickness 0.15)))
  )
  (fp_line (start -3.556 3.048) (end 3.556 3.048) (layer F.SilkS) (width 0.15))
  (fp_line (start -3.556 -3.048) (end 3.556 -3.048) (layer F.SilkS) (width 0.15))
  (fp_line (start -5.1 -3.3) (end 5.1 -3.3) (layer F.CrtYd) (width 0.05))
  (fp_line (start -5.1 3.3) (end 5.1 3.3) (layer F.CrtYd) (width 0.05))
  (fp_line (start -5.1 -3.3) (end -5.1 3.3) (layer F.CrtYd) (width 0.05))
  (fp_line (start 5.1 -3.3) (end 5.1 3.3) (layer F.CrtYd) (width 0.05))
  (pad 1 smd rect (at -3.7 0 90) (size 5.6 2.3) (layers F.Cu F.Paste F.Mask))
  (pad 2 smd rect (at 3.7 0 90) (size 5.6 2.3) (layers F.Cu F.Paste F.Mask))
  (model ${KISYS3DMOD}/Resistor_SMD.3dshapes/R_2816_7142Metric.wrl
    (at (xyz 0 0 0))
    (scale (xyz 1 1 1))
    (rotate (xyz 0 0 0))
  )
)
