EESchema Schematic File Version 4
EELAYER 30 0
EELAYER END
$Descr A4 11693 8268
encoding utf-8
Sheet 4 10
Title "nxpboard"
Date "2020-08-08"
Rev "1.1"
Comp "THD"
Comment1 "Jonas Wühr"
Comment2 "Lucas Bartosch"
Comment3 ""
Comment4 ""
$EndDescr
$Comp
L driveshield-rescue:GND-power-supply #PWR?
U 1 1 5F923437
P 6300 3250
AR Path="/5EAB593B/5F923437" Ref="#PWR?"  Part="1" 
AR Path="/5EAB593B/5F83387E/5F923437" Ref="#PWR0103"  Part="1" 
F 0 "#PWR0103" H 6300 3000 50  0001 C CNN
F 1 "GND" H 6305 3077 50  0000 C CNN
F 2 "" H 6300 3250 50  0000 C CNN
F 3 "" H 6300 3250 50  0000 C CNN
	1    6300 3250
	1    0    0    -1  
$EndComp
$Comp
L driveshield-rescue:GND-power-supply #PWR?
U 1 1 5F92344B
P 4050 5850
AR Path="/5EAB593B/5F92344B" Ref="#PWR?"  Part="1" 
AR Path="/5EAB593B/5F83387E/5F92344B" Ref="#PWR0113"  Part="1" 
F 0 "#PWR0113" H 4050 5600 50  0001 C CNN
F 1 "GND" H 4055 5677 50  0000 C CNN
F 2 "" H 4050 5850 50  0000 C CNN
F 3 "" H 4050 5850 50  0000 C CNN
	1    4050 5850
	1    0    0    -1  
$EndComp
$Comp
L driveshield-rescue:GND-power-supply #PWR?
U 1 1 5F923451
P 4000 3150
AR Path="/5EAB593B/5F923451" Ref="#PWR?"  Part="1" 
AR Path="/5EAB593B/5F83387E/5F923451" Ref="#PWR0114"  Part="1" 
F 0 "#PWR0114" H 4000 2900 50  0001 C CNN
F 1 "GND" H 4005 2977 50  0000 C CNN
F 2 "" H 4000 3150 50  0000 C CNN
F 3 "" H 4000 3150 50  0000 C CNN
	1    4000 3150
	1    0    0    -1  
$EndComp
Wire Wire Line
	4000 2200 4000 2050
Wire Wire Line
	4000 3000 4000 3150
Wire Wire Line
	4050 5700 4050 5850
$Comp
L driveshield-rescue:R_0603-devices R?
U 1 1 5F92345B
P 5700 3050
AR Path="/5EAB593B/5F92345B" Ref="R?"  Part="1" 
AR Path="/5EAB593B/5F83387E/5F92345B" Ref="R19"  Part="1" 
F 0 "R19" V 5504 3050 50  0000 C CNN
F 1 "RES 22k 1% 0603" V 5595 3050 50  0000 C CNN
F 2 "resistors:R_0603" H 5700 2900 50  0001 C CNN
F 3 "" H 5700 3050 50  0000 C CNN
F 4 "RC0603FR-0722KL" H 5700 3050 50  0001 C CNN "manf#"
F 5 "1" H 5700 3050 50  0001 C CNN "check"
	1    5700 3050
	0    1    1    0   
$EndComp
$Comp
L driveshield-rescue:R_0603-devices R?
U 1 1 5F923461
P 5700 2450
AR Path="/5EAB593B/5F923461" Ref="R?"  Part="1" 
AR Path="/5EAB593B/5F83387E/5F923461" Ref="R11"  Part="1" 
F 0 "R11" V 5504 2450 50  0000 C CNN
F 1 "RES 56k 1% 0603" V 5595 2450 50  0000 C CNN
F 2 "resistors:R_0603" H 5700 2300 50  0001 C CNN
F 3 "" H 5700 2450 50  0000 C CNN
F 4 "RR0816P-563-D" H 5700 2450 50  0001 C CNN "manf#"
F 5 "1" H 5700 2450 50  0001 C CNN "check"
	1    5700 2450
	0    1    1    0   
$EndComp
$Comp
L driveshield-rescue:R_0603-devices R?
U 1 1 5F923467
P 5700 2750
AR Path="/5EAB593B/5F923467" Ref="R?"  Part="1" 
AR Path="/5EAB593B/5F83387E/5F923467" Ref="R18"  Part="1" 
F 0 "R18" V 5504 2750 50  0000 C CNN
F 1 "RES 56k 1% 0603" V 5595 2750 50  0000 C CNN
F 2 "resistors:R_0603" H 5700 2600 50  0001 C CNN
F 3 "" H 5700 2750 50  0000 C CNN
F 4 "RR0816P-563-D" H 5700 2750 50  0001 C CNN "manf#"
F 5 "1" H 5700 2750 50  0001 C CNN "check"
	1    5700 2750
	0    1    1    0   
$EndComp
$Comp
L driveshield-rescue:R_0603-devices R?
U 1 1 5F92346D
P 6050 2100
AR Path="/5EAB593B/5F92346D" Ref="R?"  Part="1" 
AR Path="/5EAB593B/5F83387E/5F92346D" Ref="R20"  Part="1" 
F 0 "R20" V 5854 2100 50  0000 C CNN
F 1 "RES 22k 1% 0603" V 5945 2100 50  0000 C CNN
F 2 "resistors:R_0603" H 6050 1950 50  0001 C CNN
F 3 "" H 6050 2100 50  0000 C CNN
F 4 "RC0603FR-0722KL" H 6050 2100 50  0001 C CNN "manf#"
F 5 "1" H 6050 2100 50  0001 C CNN "check"
	1    6050 2100
	0    1    1    0   
$EndComp
Wire Wire Line
	5900 2450 5850 2450
Connection ~ 5850 2450
Wire Wire Line
	5850 2450 5800 2450
Wire Wire Line
	5900 2650 5850 2650
Wire Wire Line
	5850 2650 5850 2750
Wire Wire Line
	5850 3050 5800 3050
Wire Wire Line
	5800 2750 5850 2750
Connection ~ 5850 2750
Wire Wire Line
	5850 2750 5850 3050
$Comp
L driveshield-rescue:R_0603-devices R?
U 1 1 5F92348B
P 3550 5700
AR Path="/5EAB593B/5F92348B" Ref="R?"  Part="1" 
AR Path="/5EAB593B/5F83387E/5F92348B" Ref="R23"  Part="1" 
F 0 "R23" H 3609 5746 50  0000 L CNN
F 1 "RES 5.6k 10% 0603" H 3609 5655 50  0000 L CNN
F 2 "resistors:R_0603" H 3550 5550 50  0001 C CNN
F 3 "" H 3550 5700 50  0000 C CNN
F 4 "RMCF0603JT5K60" H 3550 5700 50  0001 C CNN "manf#"
F 5 "1" H 3550 5700 50  0001 C CNN "check"
	1    3550 5700
	-1   0    0    1   
$EndComp
$Comp
L driveshield-rescue:GND-power-supply #PWR?
U 1 1 5F923497
P 3550 5900
AR Path="/5EAB593B/5F923497" Ref="#PWR?"  Part="1" 
AR Path="/5EAB593B/5F83387E/5F923497" Ref="#PWR0116"  Part="1" 
F 0 "#PWR0116" H 3550 5650 50  0001 C CNN
F 1 "GND" H 3555 5727 50  0000 C CNN
F 2 "" H 3550 5900 50  0000 C CNN
F 3 "" H 3550 5900 50  0000 C CNN
	1    3550 5900
	1    0    0    -1  
$EndComp
Wire Wire Line
	4600 2150 4600 2600
$Comp
L driveshield-rescue:R_0603-devices R?
U 1 1 5F9234A9
P 3450 2450
AR Path="/5EAB593B/5F9234A9" Ref="R?"  Part="1" 
AR Path="/5EAB593B/5F83387E/5F9234A9" Ref="R6"  Part="1" 
F 0 "R6" H 3509 2496 50  0000 L CNN
F 1 "RES 10k 10% 0603" H 3509 2405 50  0000 L CNN
F 2 "resistors:R_0603" H 3450 2300 50  0001 C CNN
F 3 "" H 3450 2450 50  0000 C CNN
F 4 "RC0603FR-0710KL" H 3450 2450 50  0001 C CNN "manf#"
F 5 "1" H 3450 2450 50  0001 C CNN "check"
	1    3450 2450
	-1   0    0    1   
$EndComp
$Comp
L driveshield-rescue:GND-power-supply #PWR?
U 1 1 5F9234BB
P 3450 3150
AR Path="/5EAB593B/5F9234BB" Ref="#PWR?"  Part="1" 
AR Path="/5EAB593B/5F83387E/5F9234BB" Ref="#PWR0118"  Part="1" 
F 0 "#PWR0118" H 3450 2900 50  0001 C CNN
F 1 "GND" H 3455 2977 50  0000 C CNN
F 2 "" H 3450 3150 50  0000 C CNN
F 3 "" H 3450 3150 50  0000 C CNN
	1    3450 3150
	1    0    0    -1  
$EndComp
Wire Wire Line
	3450 2350 3450 2200
$Comp
L driveshield-rescue:OPA2374AIDCN-opamps U?
U 1 1 5F9234CC
P 4150 5300
AR Path="/5EAB593B/5F9234CC" Ref="U?"  Part="1" 
AR Path="/5EAB593B/5F83387E/5F9234CC" Ref="U9"  Part="1" 
F 0 "U9" H 4694 5353 60  0000 L CNN
F 1 "OPA2374AIDCN LM358" H 4150 5150 60  0000 L CNN
F 2 "SOIC:SOIC-8_3.9x4.9mm_Pitch1.27mm" H 4150 5250 60  0001 C CNN
F 3 "" H 4150 5300 60  0000 C CNN
F 4 "LM358DR" H 4150 5300 50  0001 C CNN "manf#"
F 5 "" H 4150 5300 50  0001 C CNN "manf"
F 6 "1" H 4150 5300 50  0001 C CNN "check"
	1    4150 5300
	1    0    0    -1  
$EndComp
$Comp
L driveshield-rescue:OPA2374AIDCN-opamps U6A?
U 1 1 5F9234D2
P 4100 2600
AR Path="/5EAB593B/5F9234D2" Ref="U6A?"  Part="1" 
AR Path="/5EAB593B/5F83387E/5F9234D2" Ref="U6"  Part="1" 
F 0 "U6" H 4644 2653 60  0000 L CNN
F 1 "OPA2374AIDCN LM358" H 4100 2450 60  0000 L CNN
F 2 "SOIC:SOIC-8_3.9x4.9mm_Pitch1.27mm" H 4100 2550 60  0001 C CNN
F 3 "" H 4100 2600 60  0000 C CNN
F 4 "LM358DR" H 4100 2600 50  0001 C CNN "manf#"
F 5 "" H 4100 2600 50  0001 C CNN "manf"
F 6 "1" H 4100 2600 50  0001 C CNN "check"
	1    4100 2600
	1    0    0    -1  
$EndComp
Wire Wire Line
	3550 5800 3550 5900
$Comp
L driveshield-rescue:TEST_1P-mechanical-connectors W?
U 1 1 5F9234E5
P 8050 5150
AR Path="/5EAB593B/5F9234E5" Ref="W?"  Part="1" 
AR Path="/5EAB593B/5F83387E/5F9234E5" Ref="W2"  Part="1" 
F 0 "W2" H 8108 5268 50  0000 L CNN
F 1 "TEST_1P" H 8108 5177 50  0000 L CNN
F 2 "wire_pads:SolderWirePad_single_1mmSMD" H 8250 5150 50  0001 C CNN
F 3 "" H 8250 5150 50  0000 C CNN
F 4 "1" H 8050 5150 50  0001 C CNN "DNP"
	1    8050 5150
	1    0    0    -1  
$EndComp
Wire Wire Line
	8050 5150 8050 5250
$Comp
L driveshield-rescue:POT-devices RV?
U 1 1 5F9234EC
P 5500 1850
AR Path="/5EAB593B/5F9234EC" Ref="RV?"  Part="1" 
AR Path="/5EAB593B/5F83387E/5F9234EC" Ref="RV4"  Part="1" 
F 0 "RV4" V 5454 1772 50  0000 R CNN
F 1 "100K Trimmer" V 5545 1772 50  0000 R CNN
F 2 "potentiometers:Potentiometer_Bourns_TC33X_Vertical" H 5500 1850 50  0001 C CNN
F 3 "" H 5500 1850 50  0000 C CNN
F 4 "TC33X-2-104E" H 5500 1850 50  0001 C CNN "manf#"
F 5 "1" H 5500 1850 50  0001 C CNN "DNP"
F 6 "1" H 5500 1850 50  0001 C CNN "check"
	1    5500 1850
	0    1    1    0   
$EndComp
Connection ~ 8050 5250
Wire Wire Line
	8050 5250 7750 5250
$Comp
L driveshield-rescue:POT-devices RV?
U 1 1 5F923504
P 5600 4550
AR Path="/5EAB593B/5F923504" Ref="RV?"  Part="1" 
AR Path="/5EAB593B/5F83387E/5F923504" Ref="RV5"  Part="1" 
F 0 "RV5" V 5554 4472 50  0000 R CNN
F 1 "100K Trimmer" V 5645 4472 50  0000 R CNN
F 2 "potentiometers:Potentiometer_Bourns_TC33X_Vertical" H 5600 4550 50  0001 C CNN
F 3 "" H 5600 4550 50  0000 C CNN
F 4 "TC33X-2-104E" H 5600 4550 50  0001 C CNN "manf#"
F 5 "1" H 5600 4550 50  0001 C CNN "DNP"
F 6 "1" H 5600 4550 50  0001 C CNN "check"
	1    5600 4550
	0    1    1    0   
$EndComp
Connection ~ 6750 4800
Wire Wire Line
	7050 4800 6750 4800
Wire Wire Line
	7050 5250 7050 4800
Wire Wire Line
	7000 5250 7050 5250
Wire Wire Line
	5950 5450 5950 5750
Wire Wire Line
	5950 5350 5950 5450
Connection ~ 5950 5450
Wire Wire Line
	5900 5450 5950 5450
Wire Wire Line
	5950 5750 5900 5750
Wire Wire Line
	6000 5350 5950 5350
Wire Wire Line
	6000 5150 5950 5150
Connection ~ 5950 5150
Wire Wire Line
	5950 5150 5900 5150
$Comp
L driveshield-rescue:R_0603-devices R?
U 1 1 5F923531
P 5800 5450
AR Path="/5EAB593B/5F923531" Ref="R?"  Part="1" 
AR Path="/5EAB593B/5F83387E/5F923531" Ref="R27"  Part="1" 
F 0 "R27" V 5604 5450 50  0000 C CNN
F 1 "RES 56k 1% 0603" V 5695 5450 50  0000 C CNN
F 2 "resistors:R_0603" H 5800 5300 50  0001 C CNN
F 3 "" H 5800 5450 50  0000 C CNN
F 4 "RR0816P-563-D" H 5800 5450 50  0001 C CNN "manf#"
F 5 "1" H 5800 5450 50  0001 C CNN "check"
	1    5800 5450
	0    1    1    0   
$EndComp
$Comp
L driveshield-rescue:R_0603-devices R?
U 1 1 5F923537
P 5800 5150
AR Path="/5EAB593B/5F923537" Ref="R?"  Part="1" 
AR Path="/5EAB593B/5F83387E/5F923537" Ref="R24"  Part="1" 
F 0 "R24" V 5604 5150 50  0000 C CNN
F 1 "RES 56k 1% 0603" V 5695 5150 50  0000 C CNN
F 2 "resistors:R_0603" H 5800 5000 50  0001 C CNN
F 3 "" H 5800 5150 50  0000 C CNN
F 4 "RR0816P-563-D" H 5800 5150 50  0001 C CNN "manf#"
F 5 "1" H 5800 5150 50  0001 C CNN "check"
	1    5800 5150
	0    1    1    0   
$EndComp
$Comp
L driveshield-rescue:R_0603-devices R?
U 1 1 5F92353D
P 5800 5750
AR Path="/5EAB593B/5F92353D" Ref="R?"  Part="1" 
AR Path="/5EAB593B/5F83387E/5F92353D" Ref="R28"  Part="1" 
F 0 "R28" V 5604 5750 50  0000 C CNN
F 1 "RES 22k 1% 0603" V 5695 5750 50  0000 C CNN
F 2 "resistors:R_0603" H 5800 5600 50  0001 C CNN
F 3 "" H 5800 5750 50  0000 C CNN
F 4 "RC0603FR-0722KL" H 5800 5750 50  0001 C CNN "manf#"
F 5 "1" H 5800 5750 50  0001 C CNN "check"
	1    5800 5750
	0    1    1    0   
$EndComp
$Comp
L driveshield-rescue:R_0603-devices R?
U 1 1 5F923543
P 6100 4800
AR Path="/5EAB593B/5F923543" Ref="R?"  Part="1" 
AR Path="/5EAB593B/5F83387E/5F923543" Ref="R29"  Part="1" 
F 0 "R29" V 5904 4800 50  0000 C CNN
F 1 "RES 22k 1% 0603" V 5995 4800 50  0000 C CNN
F 2 "resistors:R_0603" H 6100 4650 50  0001 C CNN
F 3 "" H 6100 4800 50  0000 C CNN
F 4 "RC0603FR-0722KL" H 6100 4800 50  0001 C CNN "manf#"
F 5 "1" H 6100 4800 50  0001 C CNN "check"
	1    6100 4800
	0    1    1    0   
$EndComp
Wire Wire Line
	6400 5650 6400 5800
$Comp
L driveshield-rescue:GND-power-supply #PWR?
U 1 1 5F92354A
P 6400 5800
AR Path="/5EAB593B/5F92354A" Ref="#PWR?"  Part="1" 
AR Path="/5EAB593B/5F83387E/5F92354A" Ref="#PWR0120"  Part="1" 
F 0 "#PWR0120" H 6400 5550 50  0001 C CNN
F 1 "GND" H 6405 5627 50  0000 C CNN
F 2 "" H 6400 5800 50  0000 C CNN
F 3 "" H 6400 5800 50  0000 C CNN
	1    6400 5800
	1    0    0    -1  
$EndComp
$Comp
L driveshield-rescue:TEST_1P-mechanical-connectors W?
U 1 1 5F9778F6
P 8100 2400
AR Path="/5EAB593B/5F9778F6" Ref="W?"  Part="1" 
AR Path="/5EAB593B/5F83387E/5F9778F6" Ref="W1"  Part="1" 
F 0 "W1" H 8158 2518 50  0000 L CNN
F 1 "TEST_1P" H 8158 2427 50  0000 L CNN
F 2 "wire_pads:SolderWirePad_single_1mmSMD" H 8300 2400 50  0001 C CNN
F 3 "" H 8300 2400 50  0000 C CNN
F 4 "1" H 8100 2400 50  0001 C CNN "DNP"
	1    8100 2400
	1    0    0    -1  
$EndComp
Wire Wire Line
	8100 2400 8100 2500
$Comp
L driveshield-rescue:OPA2374AIDCN-opamps U6B?
U 2 1 5F9234D8
P 6400 2550
AR Path="/5EAB593B/5F9234D8" Ref="U6B?"  Part="1" 
AR Path="/5EAB593B/5F83387E/5F9234D8" Ref="U6"  Part="2" 
F 0 "U6" H 6944 2603 60  0000 L CNN
F 1 "OPA2374AIDCN LM358" H 6400 2400 60  0000 L CNN
F 2 "SOIC:SOIC-8_3.9x4.9mm_Pitch1.27mm" H 6400 2500 60  0001 C CNN
F 3 "" H 6400 2550 60  0000 C CNN
F 4 "LM358DR" H 6400 2550 50  0001 C CNN "manf#"
F 5 "" H 6400 2550 50  0001 C CNN "manf"
F 6 "1" H 6400 2550 50  0001 C CNN "check"
	2    6400 2550
	1    0    0    -1  
$EndComp
Connection ~ 8100 2500
Wire Wire Line
	8100 2500 7750 2500
Wire Wire Line
	6900 2100 6900 2550
Connection ~ 6550 2100
Wire Wire Line
	6550 2100 6900 2100
Text HLabel 5600 5150 0    50   Input ~ 0
CH_B1
Wire Wire Line
	5600 5150 5700 5150
Wire Wire Line
	5700 5450 5600 5450
Text HLabel 5600 5450 0    50   Input ~ 0
CH_B2
Text HLabel 5500 2450 0    50   Input ~ 0
CH_A1
Text HLabel 5500 2750 0    50   Input ~ 0
CH_A2
Wire Wire Line
	5500 2450 5600 2450
Wire Wire Line
	5600 2750 5500 2750
Wire Wire Line
	5100 2600 4600 2600
Connection ~ 4600 2600
Text HLabel 8200 5250 2    50   Output ~ 0
EMF_B
Wire Wire Line
	8050 5250 8200 5250
Text HLabel 8350 2500 2    50   Output ~ 0
EMF_A
Wire Wire Line
	8100 2500 8350 2500
$Comp
L driveshield-rescue:OPA2374AIDCN-opamps U?
U 2 1 5F92352B
P 6500 5250
AR Path="/5EAB593B/5F92352B" Ref="U?"  Part="1" 
AR Path="/5EAB593B/5F83387E/5F92352B" Ref="U9"  Part="2" 
F 0 "U9" H 7044 5303 60  0000 L CNN
F 1 "OPA2374AIDCN LM358" H 6650 5150 60  0000 L CNN
F 2 "SOIC:SOIC-8_3.9x4.9mm_Pitch1.27mm" H 6500 5250 60  0001 C CNN
F 3 "" H 6500 5250 60  0000 C CNN
F 4 "LM358DR" H 6500 5250 50  0001 C CNN "manf#"
F 5 "" H 6500 5250 50  0001 C CNN "manf"
F 6 "1" H 6500 5250 50  0001 C CNN "check"
	2    6500 5250
	1    0    0    -1  
$EndComp
Wire Wire Line
	5600 4800 5950 4800
Wire Wire Line
	5600 4300 6750 4300
Wire Wire Line
	6750 4300 6750 4800
Wire Wire Line
	5750 4550 5950 4550
Connection ~ 5950 4800
Wire Wire Line
	5950 4800 6000 4800
Wire Wire Line
	5950 4800 5950 5150
Wire Wire Line
	5950 4550 5950 4800
Wire Wire Line
	6550 1600 5500 1600
Wire Wire Line
	6550 1600 6550 2100
Wire Wire Line
	6150 2100 6550 2100
Wire Wire Line
	5850 1850 5650 1850
Wire Wire Line
	5500 2100 5850 2100
Wire Wire Line
	5850 1850 5850 2100
Connection ~ 5850 2100
Wire Wire Line
	5850 2100 5950 2100
Wire Wire Line
	5850 2100 5850 2450
Wire Wire Line
	6300 2950 6300 3200
$Comp
L driveshield-rescue:C_0805-devices C46
U 1 1 603C5E25
P 6550 3100
F 0 "C46" H 6642 3146 50  0000 L CNN
F 1 "CAP CER 100nF 6V 0603" H 6642 3055 50  0000 L CNN
F 2 "capacitors:C_0603" H 6550 2950 50  0001 C CNN
F 3 "" H 6550 3100 50  0000 C CNN
F 4 "C0603C104M4RACTU" H 6550 3100 50  0001 C CNN "manf#"
F 5 "1" H 6550 3100 50  0001 C CNN "check"
	1    6550 3100
	1    0    0    -1  
$EndComp
Wire Wire Line
	6550 3200 6300 3200
Connection ~ 6300 3200
Wire Wire Line
	6300 3200 6300 3250
Wire Wire Line
	6300 2150 6300 2000
$Comp
L driveshield-rescue:C_0805-devices C47
U 1 1 603D542F
P 6550 5700
F 0 "C47" H 6642 5746 50  0000 L CNN
F 1 "CAP CER 100nF 6V 0603" H 6642 5655 50  0000 L CNN
F 2 "capacitors:C_0603" H 6550 5550 50  0001 C CNN
F 3 "" H 6550 5700 50  0000 C CNN
F 4 "C0603C104M4RACTU" H 6550 5700 50  0001 C CNN "manf#"
F 5 "1" H 6550 5700 50  0001 C CNN "check"
	1    6550 5700
	1    0    0    -1  
$EndComp
Wire Wire Line
	6550 5800 6400 5800
Connection ~ 6400 5800
$Comp
L driveshield-rescue:+6V-power-supply #PWR0111
U 1 1 5F1515FF
P 6300 2000
F 0 "#PWR0111" H 6300 1850 50  0001 C CNN
F 1 "+6V" H 6315 2173 50  0000 C CNN
F 2 "" H 6300 2000 50  0000 C CNN
F 3 "" H 6300 2000 50  0000 C CNN
	1    6300 2000
	1    0    0    -1  
$EndComp
$Comp
L driveshield-rescue:+6V-power-supply #PWR0112
U 1 1 5F153B46
P 4000 2050
F 0 "#PWR0112" H 4000 1900 50  0001 C CNN
F 1 "+6V" H 4015 2223 50  0000 C CNN
F 2 "" H 4000 2050 50  0000 C CNN
F 3 "" H 4000 2050 50  0000 C CNN
	1    4000 2050
	1    0    0    -1  
$EndComp
$Comp
L driveshield-rescue:+6V-power-supply #PWR0115
U 1 1 5F155D7B
P 3450 2200
F 0 "#PWR0115" H 3450 2050 50  0001 C CNN
F 1 "+6V" H 3465 2373 50  0000 C CNN
F 2 "" H 3450 2200 50  0000 C CNN
F 3 "" H 3450 2200 50  0000 C CNN
	1    3450 2200
	1    0    0    -1  
$EndComp
Wire Wire Line
	4050 4900 4050 4750
$Comp
L driveshield-rescue:+6V-power-supply #PWR0117
U 1 1 5F15C0B5
P 4050 4750
F 0 "#PWR0117" H 4050 4600 50  0001 C CNN
F 1 "+6V" H 4065 4923 50  0000 C CNN
F 2 "" H 4050 4750 50  0000 C CNN
F 3 "" H 4050 4750 50  0000 C CNN
	1    4050 4750
	1    0    0    -1  
$EndComp
Wire Wire Line
	6400 4850 6400 4700
$Comp
L driveshield-rescue:+6V-power-supply #PWR0119
U 1 1 5F15EBE1
P 6400 4700
F 0 "#PWR0119" H 6400 4550 50  0001 C CNN
F 1 "+6V" H 6415 4873 50  0000 C CNN
F 2 "" H 6400 4700 50  0000 C CNN
F 3 "" H 6400 4700 50  0000 C CNN
	1    6400 4700
	1    0    0    -1  
$EndComp
Wire Wire Line
	3550 5100 3550 4950
$Comp
L driveshield-rescue:+6V-power-supply #PWR0121
U 1 1 5F16198D
P 3550 4950
F 0 "#PWR0121" H 3550 4800 50  0001 C CNN
F 1 "+6V" H 3565 5123 50  0000 C CNN
F 2 "" H 3550 4950 50  0000 C CNN
F 3 "" H 3550 4950 50  0000 C CNN
	1    3550 4950
	1    0    0    -1  
$EndComp
Wire Wire Line
	3450 3150 3450 3050
$Comp
L driveshield-rescue:R_0603-devices R?
U 1 1 5F9234AF
P 3450 2950
AR Path="/5EAB593B/5F9234AF" Ref="R?"  Part="1" 
AR Path="/5EAB593B/5F83387E/5F9234AF" Ref="R10"  Part="1" 
F 0 "R10" H 3509 2996 50  0000 L CNN
F 1 "RES 5.6k 10% 0603" H 3509 2905 50  0000 L CNN
F 2 "resistors:R_0603" H 3450 2800 50  0001 C CNN
F 3 "" H 3450 2950 50  0000 C CNN
F 4 "RMCF0603JT5K60" H 3450 2950 50  0001 C CNN "manf#"
F 5 "1" H 3450 2950 50  0001 C CNN "check"
	1    3450 2950
	-1   0    0    1   
$EndComp
$Comp
L driveshield-rescue:+6V-power-supply #PWR0122
U 1 1 5F170946
P 6550 5600
F 0 "#PWR0122" H 6550 5450 50  0001 C CNN
F 1 "+6V" H 6565 5773 50  0000 C CNN
F 2 "" H 6550 5600 50  0000 C CNN
F 3 "" H 6550 5600 50  0000 C CNN
	1    6550 5600
	1    0    0    -1  
$EndComp
$Comp
L driveshield-rescue:+6V-power-supply #PWR0123
U 1 1 5F173697
P 6550 3000
F 0 "#PWR0123" H 6550 2850 50  0001 C CNN
F 1 "+6V" H 6565 3173 50  0000 C CNN
F 2 "" H 6550 3000 50  0000 C CNN
F 3 "" H 6550 3000 50  0000 C CNN
	1    6550 3000
	1    0    0    -1  
$EndComp
$Comp
L driveshield-rescue:R_0603-devices R?
U 1 1 5F1449FB
P 7750 5000
AR Path="/5EAB593B/5F1449FB" Ref="R?"  Part="1" 
AR Path="/5EAB593B/5F83387E/5F1449FB" Ref="R37"  Part="1" 
F 0 "R37" V 7850 4900 50  0000 L CNN
F 1 "RES 10k 10% 0603" V 7950 4900 50  0000 L CNN
F 2 "resistors:R_0603" H 7750 4850 50  0001 C CNN
F 3 "" H 7750 5000 50  0000 C CNN
F 4 "RC0603FR-0710KL" H 7750 5000 50  0001 C CNN "manf#"
F 5 "1" H 7750 5000 50  0001 C CNN "check"
	1    7750 5000
	1    0    0    -1  
$EndComp
$Comp
L driveshield-rescue:R_0603-devices R?
U 1 1 5F1475FD
P 7750 5500
AR Path="/5EAB593B/5F1475FD" Ref="R?"  Part="1" 
AR Path="/5EAB593B/5F83387E/5F1475FD" Ref="R38"  Part="1" 
F 0 "R38" V 7850 5500 50  0000 C CNN
F 1 "RES 22k 1% 0603" V 7950 5300 50  0000 C CNN
F 2 "resistors:R_0603" H 7750 5350 50  0001 C CNN
F 3 "" H 7750 5500 50  0000 C CNN
F 4 "RC0603FR-0722KL" H 7750 5500 50  0001 C CNN "manf#"
F 5 "1" H 7750 5500 50  0001 C CNN "check"
	1    7750 5500
	1    0    0    -1  
$EndComp
$Comp
L driveshield-rescue:R_0603-devices R?
U 1 1 5F1343D3
P 7750 2750
AR Path="/5EAB593B/5F1343D3" Ref="R?"  Part="1" 
AR Path="/5EAB593B/5F83387E/5F1343D3" Ref="R30"  Part="1" 
F 0 "R30" V 7850 2750 50  0000 C CNN
F 1 "RES 22k 1% 0603" V 7950 2550 50  0000 C CNN
F 2 "resistors:R_0603" H 7750 2600 50  0001 C CNN
F 3 "" H 7750 2750 50  0000 C CNN
F 4 "RC0603FR-0722KL" H 7750 2750 50  0001 C CNN "manf#"
F 5 "1" H 7750 2750 50  0001 C CNN "check"
	1    7750 2750
	1    0    0    -1  
$EndComp
$Comp
L driveshield-rescue:R_0603-devices R?
U 1 1 5F13F76F
P 7750 2250
AR Path="/5EAB593B/5F13F76F" Ref="R?"  Part="1" 
AR Path="/5EAB593B/5F83387E/5F13F76F" Ref="R3"  Part="1" 
F 0 "R3" V 7850 2150 50  0000 L CNN
F 1 "RES 10k 10% 0603" V 7950 2150 50  0000 L CNN
F 2 "resistors:R_0603" H 7750 2100 50  0001 C CNN
F 3 "" H 7750 2250 50  0000 C CNN
F 4 "RC0603FR-0710KL" H 7750 2250 50  0001 C CNN "manf#"
F 5 "1" H 7750 2250 50  0001 C CNN "check"
	1    7750 2250
	1    0    0    -1  
$EndComp
Wire Wire Line
	7750 2100 7750 2150
Wire Wire Line
	7750 2650 7750 2500
Connection ~ 7750 2500
Wire Wire Line
	7750 2500 7750 2350
Wire Wire Line
	7750 4800 7750 4900
Wire Wire Line
	7750 5100 7750 5250
Connection ~ 7750 5250
Wire Wire Line
	7750 5250 7750 5400
Wire Wire Line
	7750 5600 7750 5700
Wire Wire Line
	7750 2850 7750 2950
$Comp
L driveshield-rescue:GND-power-supply #PWR?
U 1 1 5F16DB7D
P 7750 2950
AR Path="/5EAB593B/5F16DB7D" Ref="#PWR?"  Part="1" 
AR Path="/5EAB593B/5F83387E/5F16DB7D" Ref="#PWR0127"  Part="1" 
F 0 "#PWR0127" H 7750 2700 50  0001 C CNN
F 1 "GND" H 7755 2777 50  0000 C CNN
F 2 "" H 7750 2950 50  0000 C CNN
F 3 "" H 7750 2950 50  0000 C CNN
	1    7750 2950
	1    0    0    -1  
$EndComp
$Comp
L driveshield-rescue:GND-power-supply #PWR?
U 1 1 5F1733C0
P 7750 5700
AR Path="/5EAB593B/5F1733C0" Ref="#PWR?"  Part="1" 
AR Path="/5EAB593B/5F83387E/5F1733C0" Ref="#PWR0128"  Part="1" 
F 0 "#PWR0128" H 7750 5450 50  0001 C CNN
F 1 "GND" H 7755 5527 50  0000 C CNN
F 2 "" H 7750 5700 50  0000 C CNN
F 3 "" H 7750 5700 50  0000 C CNN
	1    7750 5700
	1    0    0    -1  
$EndComp
Text Notes 4850 3750 0    50   ~ 0
Remove R6 or bridge R10 and use/install RV4 to get a signal only for one direction.\nThe amplification of the output can then be linearely adjusted with the trimmer.
Text Notes 8200 2900 0    50   ~ 0
To compensate the minimal rail offset, the opamp is driven by the \n6V rail and divided here. The same could be done with the battery\nvoltage if the 6V regulator is omitted.
$Comp
L driveshield-rescue:R_0603-devices R?
U 1 1 5F923485
P 3550 5200
AR Path="/5EAB593B/5F923485" Ref="R?"  Part="1" 
AR Path="/5EAB593B/5F83387E/5F923485" Ref="R21"  Part="1" 
F 0 "R21" H 3609 5246 50  0000 L CNN
F 1 "RES 10k 10% 0603" H 3609 5155 50  0000 L CNN
F 2 "resistors:R_0603" H 3550 5050 50  0001 C CNN
F 3 "" H 3550 5200 50  0000 C CNN
F 4 "RC0603FR-0710KL" H 3550 5200 50  0001 C CNN "manf#"
F 5 "1" H 3550 5200 50  0001 C CNN "check"
	1    3550 5200
	-1   0    0    1   
$EndComp
Wire Wire Line
	3600 2500 3600 2150
Wire Wire Line
	3600 2150 4600 2150
Wire Wire Line
	3450 2550 3450 2700
Wire Wire Line
	3600 2700 3450 2700
Connection ~ 3450 2700
Wire Wire Line
	3450 2700 3450 2850
Wire Wire Line
	3550 5300 3550 5400
Wire Wire Line
	3650 5400 3550 5400
Connection ~ 3550 5400
Wire Wire Line
	3550 5400 3550 5600
Wire Wire Line
	3650 5200 3650 4850
Connection ~ 4650 5300
Wire Wire Line
	3650 4850 4650 4850
Wire Wire Line
	4650 4850 4650 5300
Wire Wire Line
	5150 5300 5150 5750
Wire Wire Line
	4650 5300 5150 5300
Wire Wire Line
	5150 5750 5700 5750
Connection ~ 7050 4800
Wire Wire Line
	7050 4800 7750 4800
Wire Wire Line
	6200 4800 6750 4800
Wire Wire Line
	5100 2600 5100 3050
Wire Wire Line
	5100 3050 5600 3050
Connection ~ 6900 2100
Wire Wire Line
	6900 2100 7750 2100
Text Notes 4950 1450 0    50   ~ 0
This amplifier gives aprox. 1.65V at rest and increases\nfor one direction and decreases for the other. The change\nis roughly proportional to the motors speed.
$EndSCHEMATC
