EESchema Schematic File Version 4
EELAYER 30 0
EELAYER END
$Descr A4 11693 8268
encoding utf-8
Sheet 5 10
Title "nxpboard"
Date "2020-08-08"
Rev "1.1"
Comp "THD"
Comment1 "Jonas Wühr"
Comment2 "Lucas Bartosch"
Comment3 ""
Comment4 ""
$EndDescr
$Comp
L driveshield-rescue:TPS54335A-voltage-regulators U11
U 1 1 5E4197F3
P 5550 4900
F 0 "U11" H 5550 5740 50  0000 C CNN
F 1 "TPS54335A" H 5550 5649 50  0000 C CNN
F 2 "SOIC:SOIC-8-1EP_3.9x4.9mm_Pitch1.27mm" H 5450 4800 50  0001 C CNN
F 3 "" H 5550 4900 50  0001 C CNN
F 4 "TPS54335ADDA" H 5550 4900 50  0001 C CNN "manf#"
F 5 "1" H 5550 4900 50  0001 C CNN "check"
	1    5550 4900
	1    0    0    -1  
$EndComp
Wire Wire Line
	4700 5400 4700 5550
Wire Wire Line
	4800 5550 4700 5550
Connection ~ 4700 5550
Wire Wire Line
	4700 5550 4700 5600
Wire Wire Line
	4800 5400 4700 5400
Wire Wire Line
	4700 4400 4800 4400
Wire Wire Line
	4800 4850 3200 4850
Wire Wire Line
	3200 4850 3200 5000
$Comp
L driveshield-rescue:R_0603-devices R43
U 1 1 5E425834
P 3200 5100
F 0 "R43" H 3259 5146 50  0000 L CNN
F 1 "RES 143k 1% 0603" H 3259 5055 50  0000 L CNN
F 2 "resistors:R_0603" H 3200 4950 50  0001 C CNN
F 3 "" H 3200 5100 50  0000 C CNN
F 4 "RMCF0603FT143K" H 3200 5100 50  0001 C CNN "manf#"
F 5 "1" H 3200 5100 50  0001 C CNN "check"
	1    3200 5100
	1    0    0    -1  
$EndComp
Wire Wire Line
	3200 5200 3200 5350
Wire Wire Line
	4150 5450 4150 5800
$Comp
L driveshield-rescue:R_0603-devices R44
U 1 1 5E4296CE
P 4150 5900
F 0 "R44" H 4209 5946 50  0000 L CNN
F 1 "RES 3.74k 1% 0603" H 4209 5855 50  0000 L CNN
F 2 "resistors:R_0603" H 4150 5750 50  0001 C CNN
F 3 "" H 4150 5900 50  0000 C CNN
F 4 "RMCF0402FT3K74" H 4150 5900 50  0001 C CNN "manf#"
F 5 "1" H 4150 5900 50  0001 C CNN "check"
	1    4150 5900
	1    0    0    -1  
$EndComp
Wire Wire Line
	4150 6000 4150 6050
$Comp
L driveshield-rescue:C_0603-devices C30
U 1 1 5E42A6E4
P 4150 5350
F 0 "C30" H 4242 5396 50  0000 L CNN
F 1 "CAP CER 12nF 6V 0603" H 4242 5305 50  0000 L CNN
F 2 "capacitors:C_0603" H 4150 5200 50  0001 C CNN
F 3 "" H 4150 5350 50  0000 C CNN
F 4 "CC0603KRX7R8BB123" H 4150 5350 50  0001 C CNN "manf#"
F 5 "1" H 4150 5350 50  0001 C CNN "check"
	1    4150 5350
	1    0    0    -1  
$EndComp
$Comp
L driveshield-rescue:C_0603-devices C28
U 1 1 5E42AB7F
P 3700 5500
F 0 "C28" H 3792 5546 50  0000 L CNN
F 1 "CAP CER 120pF 6V 0603" H 3792 5455 50  0000 L CNN
F 2 "capacitors:C_0603" H 3700 5350 50  0001 C CNN
F 3 "" H 3700 5500 50  0000 C CNN
F 4 "C0603C121J5GACTU" H 3700 5500 50  0001 C CNN "manf#"
F 5 "1" H 3700 5500 50  0001 C CNN "check"
	1    3700 5500
	1    0    0    -1  
$EndComp
Wire Wire Line
	4150 6050 3700 6050
Wire Wire Line
	3700 6050 3700 5600
Connection ~ 4150 6050
Wire Wire Line
	4150 6050 4150 6100
Wire Wire Line
	3700 5400 3700 5050
Wire Wire Line
	3700 5050 4150 5050
Wire Wire Line
	4150 5050 4150 5250
Connection ~ 4150 5050
Wire Wire Line
	4150 5050 4800 5050
$Comp
L driveshield-rescue:R_0603-devices R46
U 1 1 5E439932
P 8350 5150
F 0 "R46" H 8409 5196 50  0000 L CNN
F 1 "RES 100k 5% 0603" H 8409 5105 50  0000 L CNN
F 2 "resistors:R_0603" H 8350 5000 50  0001 C CNN
F 3 "" H 8350 5150 50  0000 C CNN
F 4 "RR0816P-104-D" H 8350 5150 50  0001 C CNN "manf#"
F 5 "1" H 8350 5150 50  0001 C CNN "check"
	1    8350 5150
	1    0    0    -1  
$EndComp
$Comp
L driveshield-rescue:R_0603-devices R47
U 1 1 5E43A340
P 8350 5550
F 0 "R47" H 8409 5596 50  0000 L CNN
F 1 "RES 16.9k 1% 0603" H 8409 5505 50  0000 L CNN
F 2 "resistors:R_0603" H 8350 5400 50  0001 C CNN
F 3 "" H 8350 5550 50  0000 C CNN
F 4 "RMCF0603FT16K9" H 8350 5550 50  0001 C CNN "manf#"
F 5 "1" H 8350 5550 50  0001 C CNN "check"
	1    8350 5550
	1    0    0    -1  
$EndComp
Wire Wire Line
	8350 5650 8350 5800
$Comp
L driveshield-rescue:C_0603-devices C34
U 1 1 5E43F2C2
P 6500 4400
F 0 "C34" V 6271 4400 50  0000 C CNN
F 1 "CAP CER 100nF 6V 0603" V 6362 4400 50  0000 C CNN
F 2 "capacitors:C_0603" H 6500 4250 50  0001 C CNN
F 3 "" H 6500 4400 50  0000 C CNN
F 4 "C0603C104M4RACTU" H 6500 4400 50  0001 C CNN "manf#"
F 5 "1" H 6500 4400 50  0001 C CNN "check"
	1    6500 4400
	0    1    1    0   
$EndComp
Wire Wire Line
	6300 4400 6400 4400
Wire Wire Line
	6600 4400 6800 4400
Wire Wire Line
	6800 4400 6800 4800
Wire Wire Line
	6800 4800 7050 4800
Connection ~ 6800 4800
$Comp
L driveshield-rescue:INDUCTOR_SMALL-devices L2
U 1 1 5E44A1D0
P 7300 4800
F 0 "L2" H 7300 5015 50  0000 C CNN
F 1 "WE-74437324150" H 7300 4924 50  0000 C CNN
F 2 "L_power:WE-LHMI40xx" H 7300 4923 50  0001 C CNN
F 3 "" H 7300 4800 50  0000 C CNN
F 4 "74437324150" H 7300 4800 50  0001 C CNN "manf#"
F 5 "1" H 7300 4800 50  0001 C CNN "check"
	1    7300 4800
	1    0    0    -1  
$EndComp
Wire Wire Line
	8350 4800 8350 5050
Wire Wire Line
	7550 4800 7600 4800
$Comp
L driveshield-rescue:C_1206-devices C36
U 1 1 5E457184
P 7600 4950
F 0 "C36" H 7350 4950 50  0000 L CNN
F 1 "CAP CER 22uF 6V 1206" H 7900 4900 50  0000 L CNN
F 2 "capacitors:C_1206" H 7600 4800 50  0001 C CNN
F 3 "" H 7600 4950 50  0000 C CNN
F 4 "GRT31CC81C226ME01L" H 7600 4950 50  0001 C CNN "manf#"
F 5 "1" H 7600 4950 50  0001 C CNN "check"
	1    7600 4950
	1    0    0    -1  
$EndComp
$Comp
L driveshield-rescue:C_1206-devices C37
U 1 1 5E457C29
P 7800 4950
F 0 "C37" H 7892 4996 50  0000 L CNN
F 1 "CAP CER 22uF 6V 1206" H 6600 4850 50  0000 L CNN
F 2 "capacitors:C_1206" H 7800 4800 50  0001 C CNN
F 3 "" H 7800 4950 50  0000 C CNN
F 4 "GRT31CC81C226ME01L" H 7800 4950 50  0001 C CNN "manf#"
F 5 "1" H 7800 4950 50  0001 C CNN "check"
	1    7800 4950
	1    0    0    -1  
$EndComp
Wire Wire Line
	7600 4850 7600 4800
Connection ~ 7600 4800
Wire Wire Line
	7600 4800 7800 4800
Connection ~ 7800 4800
Wire Wire Line
	7800 4800 8350 4800
Wire Wire Line
	7800 4800 7800 4850
Wire Wire Line
	7600 5050 7600 5100
Wire Wire Line
	7800 5050 7800 5100
Wire Wire Line
	6300 5300 7250 5300
Wire Wire Line
	7250 5300 7250 5400
Connection ~ 8350 4800
$Comp
L driveshield-rescue:C_1206-devices C31
U 1 1 5E47B024
P 4250 4150
F 0 "C31" H 4342 4196 50  0000 L CNN
F 1 "CAP CER 4.7uF 6V 1206" H 4350 4100 50  0000 L CNN
F 2 "capacitors:C_1206" H 4250 4000 50  0001 C CNN
F 3 "" H 4250 4150 50  0000 C CNN
F 4 "CC1206ZRY5V7BB475" H 4250 4150 50  0001 C CNN "manf#"
F 5 "1" H 4250 4150 50  0001 C CNN "check"
	1    4250 4150
	1    0    0    -1  
$EndComp
$Comp
L driveshield-rescue:C_1206-devices C29
U 1 1 5E47BD2B
P 4100 4150
F 0 "C29" H 3850 4150 50  0000 L CNN
F 1 "CAP CER 4.7uF 6V 1206" H 4350 4100 50  0000 L CNN
F 2 "capacitors:C_1206" H 4100 4000 50  0001 C CNN
F 3 "" H 4100 4150 50  0000 C CNN
F 4 "CC1206ZRY5V7BB475" H 4100 4150 50  0001 C CNN "manf#"
F 5 "1" H 4100 4150 50  0001 C CNN "check"
	1    4100 4150
	1    0    0    -1  
$EndComp
Wire Wire Line
	4100 4250 4100 4300
Wire Wire Line
	4250 4250 4250 4300
Wire Wire Line
	4100 4050 4100 3950
Wire Wire Line
	4100 3950 4250 3950
Wire Wire Line
	4250 4050 4250 3950
Connection ~ 4250 3950
Wire Wire Line
	4250 3950 4700 3950
Text Notes 7000 4500 0    50   ~ 0
WE LHMI 4020 15uH 1.2A/2.1A
Text Label 6350 4800 0    50   ~ 0
REG_PH
Text Label 6350 4400 1    50   ~ 0
REG_BOOT
Text Label 6400 5300 0    50   ~ 0
REG_SENSE
Text Label 4250 5050 0    50   ~ 0
REG_COMP
Text Label 4150 5700 2    50   ~ 0
REG_COMP_C
Text Label 3200 4850 0    50   ~ 0
REG_RT
Wire Wire Line
	6300 4800 6800 4800
$Comp
L driveshield-rescue:R_0603-devices R41
U 1 1 5E9848CE
P 2650 4400
F 0 "R41" H 2709 4446 50  0000 L CNN
F 1 "RES 100k 10% 0603" H 2709 4355 50  0000 L CNN
F 2 "resistors:R_0603" H 2650 4250 50  0001 C CNN
F 3 "" H 2650 4400 50  0000 C CNN
F 4 "RR0816P-104-D" H 2650 4400 50  0001 C CNN "manf#"
F 5 "1" H 2650 4400 50  0001 C CNN "check"
	1    2650 4400
	1    0    0    -1  
$EndComp
$Comp
L driveshield-rescue:R_0603-devices R42
U 1 1 5E984E13
P 2650 4850
F 0 "R42" H 2709 4896 50  0000 L CNN
F 1 "RES 20k 10% 0603" H 2709 4805 50  0000 L CNN
F 2 "resistors:R_0603" H 2650 4700 50  0001 C CNN
F 3 "" H 2650 4850 50  0000 C CNN
F 4 "RR0816P-203-D" H 2650 4850 50  0001 C CNN "manf#"
F 5 "1" H 2650 4850 50  0001 C CNN "check"
	1    2650 4850
	1    0    0    -1  
$EndComp
Wire Wire Line
	2650 4650 2650 4750
Wire Wire Line
	2650 4650 2650 4500
Connection ~ 2650 4650
Wire Wire Line
	2650 4300 2650 4150
Wire Wire Line
	2650 5150 2650 4950
Wire Wire Line
	4100 4300 4250 4300
$Comp
L driveshield-rescue:+BATT-power-supply #PWR052
U 1 1 5EACF945
P 4700 3750
F 0 "#PWR052" H 4700 3600 50  0001 C CNN
F 1 "+BATT" H 4715 3923 50  0000 C CNN
F 2 "" H 4700 3750 50  0000 C CNN
F 3 "" H 4700 3750 50  0000 C CNN
	1    4700 3750
	1    0    0    -1  
$EndComp
$Comp
L driveshield-rescue:+BATT-power-supply #PWR047
U 1 1 5EAD0197
P 2650 4150
F 0 "#PWR047" H 2650 4000 50  0001 C CNN
F 1 "+BATT" H 2665 4323 50  0000 C CNN
F 2 "" H 2650 4150 50  0000 C CNN
F 3 "" H 2650 4150 50  0000 C CNN
	1    2650 4150
	1    0    0    -1  
$EndComp
Text Notes 8450 6100 0    50   ~ 0
VSENSE about 0,8V\n15.4 k for 6V,  19.1k for 5V, 16.9 k for 5.5V\nNormal servos are designed for 5V tolerant \nup to 6V with an increase in torque. As a \nreliability margin 5.5V is used.
$Comp
L driveshield-rescue:+6V-power-supply #PWR057
U 1 1 5EAE6EBC
P 8350 4600
F 0 "#PWR057" H 8350 4450 50  0001 C CNN
F 1 "+6V" H 8365 4773 50  0000 C CNN
F 2 "" H 8350 4600 50  0000 C CNN
F 3 "" H 8350 4600 50  0000 C CNN
	1    8350 4600
	1    0    0    -1  
$EndComp
Wire Notes Line
	800  3150 11000 3150
$Comp
L driveshield-rescue:WR-TBL_691313710002-mechanical-connectors P5
U 1 1 5EB07959
P 1350 1350
F 0 "P5" H 1267 1075 50  0000 C CNN
F 1 "WR-TBL_691313710002" H 1267 1166 50  0000 C CNN
F 2 "mechanical-connectors:WR-TBL_691313710002" H 1250 1400 50  0001 C CNN
F 3 "" H 1350 1350 50  0000 C CNN
F 4 "691313710002" H 1350 1350 50  0001 C CNN "manf#"
F 5 "1" H 1350 1350 50  0001 C CNN "check"
	1    1350 1350
	-1   0    0    1   
$EndComp
$Comp
L driveshield-rescue:C_0603-devices C35
U 1 1 5EB27800
P 7150 1800
F 0 "C35" H 7242 1846 50  0000 L CNN
F 1 "CAP CER 100nF 6V 0603" H 6800 1700 50  0000 L CNN
F 2 "capacitors:C_0603" H 7150 1650 50  0001 C CNN
F 3 "" H 7150 1800 50  0000 C CNN
F 4 "C0603C104M4RACTU" H 7150 1800 50  0001 C CNN "manf#"
F 5 "1" H 7150 1800 50  0001 C CNN "check"
	1    7150 1800
	1    0    0    -1  
$EndComp
$Comp
L driveshield-rescue:CP1_Small-devices C33
U 1 1 5EB263D7
P 6500 1800
F 0 "C33" H 6591 1846 50  0000 L CNN
F 1 "CAP TANTAL 47uF 10V 7343" H 6050 1550 50  0000 L CNN
F 2 "capacitors:TantalC_SizeD_EIA-7343_Wave" H 6600 1600 50  0001 C CNN
F 3 "" H 6500 1800 50  0000 C CNN
F 4 "293D476X0016D2TE3" H 6500 1800 50  0001 C CNN "manf#"
F 5 "1" H 6500 1800 50  0001 C CNN "check"
	1    6500 1800
	1    0    0    -1  
$EndComp
$Comp
L driveshield-rescue:CP1_Small-devices C32
U 1 1 5EB247A9
P 5800 1800
F 0 "C32" H 5891 1846 50  0000 L CNN
F 1 "CAP TANTAL 47uF 10V 7343" H 5350 1650 50  0000 L CNN
F 2 "capacitors:TantalC_SizeD_EIA-7343_Wave" H 5900 1600 50  0001 C CNN
F 3 "" H 5800 1800 50  0000 C CNN
F 4 "293D476X0016D2TE3" H 5800 1800 50  0001 C CNN "manf#"
F 5 "1" H 5800 1800 50  0001 C CNN "check"
	1    5800 1800
	1    0    0    -1  
$EndComp
$Comp
L driveshield-rescue:74437346082-L_power L1
U 1 1 5EB23B0F
P 5000 1300
F 0 "L1" H 5000 1605 50  0000 C CNN
F 1 "74437346082" H 5000 1514 50  0000 C CNN
F 2 "L_power:WE-LHMI70xx" H 5000 1423 50  0000 C CNN
F 3 "" H 5000 1300 50  0000 C CNN
F 4 "74437349012" H 5000 1300 50  0001 C CNN "manf#"
F 5 "1" H 5000 1300 50  0001 C CNN "check"
	1    5000 1300
	1    0    0    -1  
$EndComp
$Comp
L driveshield-rescue:ZENER-devices D1
U 1 1 5EB1ECE5
P 4200 1500
F 0 "D1" V 4154 1579 50  0000 L CNN
F 1 "Schottky 10V SOT-123" V 4245 1579 50  0000 L CNN
F 2 "diodes:SOD-123" H 4200 1500 50  0000 C CNN
F 3 "" H 4200 1500 50  0000 C CNN
F 4 "PMEG1020EH\\,115" H 4200 1500 50  0001 C CNN "manf#"
F 5 "1" H 4200 1500 50  0001 C CNN "check"
	1    4200 1500
	0    1    1    0   
$EndComp
$Comp
L driveshield-rescue:R_0603-devices R45
U 1 1 5EB14360
P 4200 1950
F 0 "R45" H 4259 1996 50  0000 L CNN
F 1 "RES 10k 10% 0603" H 4259 1905 50  0000 L CNN
F 2 "resistors:R_0603" H 4200 1800 50  0001 C CNN
F 3 "" H 4200 1950 50  0000 C CNN
F 4 "RC0603FR-0710KL" H 4200 1950 50  0001 C CNN "manf#"
F 5 "1" H 4200 1950 50  0001 C CNN "check"
	1    4200 1950
	1    0    0    -1  
$EndComp
$Comp
L driveshield-rescue:Q_PMOS_GDS-devices U10
U 1 1 5EB093B9
P 3550 1400
F 0 "U10" H 3640 1446 50  0000 L CNN
F 1 "IPD90P03P4L" H 3640 1355 50  0000 L CNN
F 2 "SOT_TO:TO-252-2Lead" H 3550 1400 50  0001 C CNN
F 3 "" H 3550 1400 50  0001 C CNN
F 4 "IPD90P03P4L04ATMA1" H 3550 1400 50  0001 C CNN "manf#"
F 5 "1" H 3550 1400 50  0001 C CNN "check"
	1    3550 1400
	0    -1   -1   0   
$EndComp
$Comp
L driveshield-rescue:C_0603-devices C27
U 1 1 5EB0857D
P 2650 1750
F 0 "C27" H 2742 1796 50  0000 L CNN
F 1 "CAP CER 100nF 6V 0603" H 2742 1705 50  0000 L CNN
F 2 "capacitors:C_0603" H 2650 1600 50  0001 C CNN
F 3 "" H 2650 1750 50  0000 C CNN
F 4 "C0603C104M4RACTU" H 2650 1750 50  0001 C CNN "manf#"
F 5 "1" H 2650 1750 50  0001 C CNN "check"
	1    2650 1750
	1    0    0    -1  
$EndComp
Wire Wire Line
	3750 1300 4200 1300
Wire Wire Line
	4750 1300 4200 1300
Connection ~ 4200 1300
Wire Wire Line
	1550 2250 1550 1400
Wire Wire Line
	1550 2450 1550 2350
Connection ~ 1550 2250
Wire Wire Line
	3550 1600 3550 1750
Wire Wire Line
	3550 1750 4200 1750
Wire Wire Line
	4200 1700 4200 1750
Connection ~ 4200 1750
Wire Wire Line
	4200 1750 4200 1850
Wire Wire Line
	4200 2050 4200 2250
Connection ~ 4200 2250
Wire Wire Line
	5250 1300 5800 1300
Wire Wire Line
	4200 2250 5800 2250
Wire Wire Line
	2650 1650 2650 1300
Wire Wire Line
	2650 1300 3350 1300
Wire Wire Line
	2650 1850 2650 2250
Wire Wire Line
	2650 2250 4200 2250
Wire Wire Line
	5800 1700 5800 1300
Connection ~ 5800 1300
Wire Wire Line
	5800 1300 6500 1300
Wire Wire Line
	6500 1700 6500 1300
Connection ~ 6500 1300
Wire Wire Line
	6500 1300 7150 1300
Wire Wire Line
	7150 1700 7150 1300
Wire Wire Line
	5800 1900 5800 2250
Connection ~ 5800 2250
Wire Wire Line
	5800 2250 6500 2250
Wire Wire Line
	6500 1900 6500 2250
Connection ~ 6500 2250
Wire Wire Line
	6500 2250 7150 2250
Wire Wire Line
	7150 1900 7150 2250
$Comp
L driveshield-rescue:+BATT-power-supply #PWR054
U 1 1 5EBA09FD
P 7150 1050
F 0 "#PWR054" H 7150 900 50  0001 C CNN
F 1 "+BATT" H 7165 1223 50  0000 C CNN
F 2 "" H 7150 1050 50  0000 C CNN
F 3 "" H 7150 1050 50  0000 C CNN
	1    7150 1050
	1    0    0    -1  
$EndComp
Connection ~ 7150 1300
$Comp
L driveshield-rescue:R_1210-devices R40
U 1 1 5EAA4381
P 2100 1300
F 0 "R40" V 1904 1300 50  0000 C CNN
F 1 "PTC 16V 5A" V 1995 1300 50  0000 C CNN
F 2 "fuse_holders_and_fuses:Fuse_SMD2920" H 2100 1150 50  0001 C CNN
F 3 "" H 2100 1300 50  0000 C CNN
F 4 "0ZCF0200FF2C" H 2100 1300 50  0001 C CNN "manf#"
F 5 "1" H 2100 1300 50  0001 C CNN "check"
	1    2100 1300
	0    1    1    0   
$EndComp
Wire Wire Line
	2200 1300 2650 1300
Connection ~ 2650 1300
Connection ~ 2650 2250
Wire Notes Line
	7850 550  7850 3150
$Comp
L driveshield-rescue:Led_Small-devices D2
U 1 1 5EC75863
P 8150 1800
F 0 "D2" V 8241 1732 50  0000 R CNN
F 1 "Led_Small" V 8150 1732 50  0000 R CNN
F 2 "LEDs:LED_1206" V 8059 1732 50  0000 R CNN
F 3 "" V 8150 1800 50  0000 C CNN
F 4 "LTST-C150GKT" H 8150 1800 50  0001 C CNN "manf#"
F 5 "1" H 8150 1800 50  0001 C CNN "check"
	1    8150 1800
	0    -1   -1   0   
$EndComp
$Comp
L driveshield-rescue:+BATT-power-supply #PWR059
U 1 1 5EC7AEF8
P 8150 1500
F 0 "#PWR059" H 8150 1350 50  0001 C CNN
F 1 "+BATT" H 8165 1673 50  0000 C CNN
F 2 "" H 8150 1500 50  0000 C CNN
F 3 "" H 8150 1500 50  0000 C CNN
	1    8150 1500
	1    0    0    -1  
$EndComp
Wire Wire Line
	8150 1700 8150 1550
$Comp
L driveshield-rescue:R_0603-devices R48
U 1 1 5EC7DB98
P 8150 2150
F 0 "R48" H 8209 2196 50  0000 L CNN
F 1 "RES 1k 10% 0603" H 8000 2000 50  0000 L CNN
F 2 "resistors:R_0603" H 8150 2000 50  0001 C CNN
F 3 "" H 8150 2150 50  0000 C CNN
F 4 "RMCF0603JJ1K00" H 8150 2150 50  0001 C CNN "manf#"
F 5 "1" H 8150 2150 50  0001 C CNN "check"
	1    8150 2150
	1    0    0    -1  
$EndComp
Wire Wire Line
	8150 2050 8150 1900
Wire Wire Line
	8150 2250 8150 2650
$Comp
L driveshield-rescue:GND-power-supply #PWR060
U 1 1 5EC83541
P 8150 2650
F 0 "#PWR060" H 8150 2400 50  0001 C CNN
F 1 "GND" H 8155 2477 50  0000 C CNN
F 2 "" H 8150 2650 50  0000 C CNN
F 3 "" H 8150 2650 50  0000 C CNN
	1    8150 2650
	1    0    0    -1  
$EndComp
Text GLabel 10500 2250 2    50   Output ~ 0
VBAT_SENS
$Comp
L driveshield-rescue:+BATT-power-supply #PWR061
U 1 1 5EC884AD
P 10350 1800
F 0 "#PWR061" H 10350 1650 50  0001 C CNN
F 1 "+BATT" H 10365 1973 50  0000 C CNN
F 2 "" H 10350 1800 50  0000 C CNN
F 3 "" H 10350 1800 50  0000 C CNN
	1    10350 1800
	1    0    0    -1  
$EndComp
Wire Notes Line
	10200 550  10200 3150
$Comp
L driveshield-rescue:R_0603-devices R49
U 1 1 5EC8B0E1
P 10350 2050
F 0 "R49" H 10409 2096 50  0000 L CNN
F 1 "RES 100k 10% 0603" H 10409 2005 50  0000 L CNN
F 2 "resistors:R_0603" H 10350 1900 50  0001 C CNN
F 3 "" H 10350 2050 50  0000 C CNN
F 4 "RR0816P-104-D" H 10350 2050 50  0001 C CNN "manf#"
F 5 "1" H 10350 2050 50  0001 C CNN "check"
	1    10350 2050
	1    0    0    -1  
$EndComp
$Comp
L driveshield-rescue:R_0603-devices R50
U 1 1 5EC8B5A8
P 10350 2450
F 0 "R50" H 10409 2496 50  0000 L CNN
F 1 "RES 56k 1% 0603" H 10409 2405 50  0000 L CNN
F 2 "resistors:R_0603" H 10350 2300 50  0001 C CNN
F 3 "" H 10350 2450 50  0000 C CNN
F 4 "RR0816P-563-D" H 10350 2450 50  0001 C CNN "manf#"
F 5 "1" H 10350 2450 50  0001 C CNN "check"
	1    10350 2450
	1    0    0    -1  
$EndComp
$Comp
L driveshield-rescue:GND-power-supply #PWR062
U 1 1 5EC8B9B8
P 10350 2700
F 0 "#PWR062" H 10350 2450 50  0001 C CNN
F 1 "GND" H 10355 2527 50  0000 C CNN
F 2 "" H 10350 2700 50  0000 C CNN
F 3 "" H 10350 2700 50  0000 C CNN
	1    10350 2700
	1    0    0    -1  
$EndComp
Wire Wire Line
	10350 1950 10350 1800
Wire Wire Line
	10350 2550 10350 2700
Wire Wire Line
	1550 2250 2650 2250
$Comp
L driveshield-rescue:GND-power-supply #PWR046
U 1 1 5EAF5DCA
P 1550 2450
F 0 "#PWR046" H 1550 2200 50  0001 C CNN
F 1 "GND" H 1555 2277 50  0000 C CNN
F 2 "" H 1550 2450 50  0000 C CNN
F 3 "" H 1550 2450 50  0000 C CNN
	1    1550 2450
	1    0    0    -1  
$EndComp
$Comp
L driveshield-rescue:GND-power-supply #PWR048
U 1 1 5EAF7198
P 2650 5150
F 0 "#PWR048" H 2650 4900 50  0001 C CNN
F 1 "GND" H 2655 4977 50  0000 C CNN
F 2 "" H 2650 5150 50  0000 C CNN
F 3 "" H 2650 5150 50  0000 C CNN
	1    2650 5150
	1    0    0    -1  
$EndComp
$Comp
L driveshield-rescue:GND-power-supply #PWR049
U 1 1 5EAF73F0
P 3200 5350
F 0 "#PWR049" H 3200 5100 50  0001 C CNN
F 1 "GND" H 3205 5177 50  0000 C CNN
F 2 "" H 3200 5350 50  0000 C CNN
F 3 "" H 3200 5350 50  0000 C CNN
	1    3200 5350
	1    0    0    -1  
$EndComp
$Comp
L driveshield-rescue:GND-power-supply #PWR051
U 1 1 5EAF890C
P 4150 6100
F 0 "#PWR051" H 4150 5850 50  0001 C CNN
F 1 "GND" H 4155 5927 50  0000 C CNN
F 2 "" H 4150 6100 50  0000 C CNN
F 3 "" H 4150 6100 50  0000 C CNN
	1    4150 6100
	1    0    0    -1  
$EndComp
$Comp
L driveshield-rescue:GND-power-supply #PWR053
U 1 1 5EAF8C22
P 4700 5600
F 0 "#PWR053" H 4700 5350 50  0001 C CNN
F 1 "GND" H 4705 5427 50  0000 C CNN
F 2 "" H 4700 5600 50  0000 C CNN
F 3 "" H 4700 5600 50  0000 C CNN
	1    4700 5600
	1    0    0    -1  
$EndComp
$Comp
L driveshield-rescue:GND-power-supply #PWR058
U 1 1 5EAF9BF6
P 8350 5800
F 0 "#PWR058" H 8350 5550 50  0001 C CNN
F 1 "GND" H 8355 5627 50  0000 C CNN
F 2 "" H 8350 5800 50  0000 C CNN
F 3 "" H 8350 5800 50  0000 C CNN
	1    8350 5800
	1    0    0    -1  
$EndComp
$Comp
L driveshield-rescue:GND-power-supply #PWR055
U 1 1 5EAFDEB8
P 7600 5100
F 0 "#PWR055" H 7600 4850 50  0001 C CNN
F 1 "GND" H 7605 4927 50  0000 C CNN
F 2 "" H 7600 5100 50  0000 C CNN
F 3 "" H 7600 5100 50  0000 C CNN
	1    7600 5100
	1    0    0    -1  
$EndComp
$Comp
L driveshield-rescue:GND-power-supply #PWR056
U 1 1 5EAFE233
P 7800 5100
F 0 "#PWR056" H 7800 4850 50  0001 C CNN
F 1 "GND" H 7805 4927 50  0000 C CNN
F 2 "" H 7800 5100 50  0000 C CNN
F 3 "" H 7800 5100 50  0000 C CNN
	1    7800 5100
	1    0    0    -1  
$EndComp
$Comp
L driveshield-rescue:GND-power-supply #PWR050
U 1 1 5EAFF08A
P 4100 4300
F 0 "#PWR050" H 4100 4050 50  0001 C CNN
F 1 "GND" H 4105 4127 50  0000 C CNN
F 2 "" H 4100 4300 50  0000 C CNN
F 3 "" H 4100 4300 50  0000 C CNN
	1    4100 4300
	1    0    0    -1  
$EndComp
Connection ~ 4100 4300
Text Notes 1950 900  0    50   ~ 0
Fuse / PTC
Wire Wire Line
	4700 3750 4700 3950
Connection ~ 4700 3950
Wire Wire Line
	4700 3950 4700 4400
Wire Wire Line
	2650 4650 4800 4650
Text Notes 2550 750  0    50   ~ 0
Option 1 Reverse polarity protection to remove bridge pad 2 and 3 of U10 with tinned wire
Wire Notes Line
	2400 600  4600 600 
Wire Notes Line
	2400 2850 4600 2850
$Comp
L driveshield-rescue:Led_Small-devices D16
U 1 1 5F03418F
P 9500 1750
F 0 "D16" V 9591 1682 50  0000 R CNN
F 1 "Led_Small" V 9500 1682 50  0000 R CNN
F 2 "LEDs:LED_1206" V 9409 1682 50  0000 R CNN
F 3 "" V 9500 1750 50  0000 C CNN
F 4 "LTST-C150GKT" H 9500 1750 50  0001 C CNN "manf#"
F 5 "1" H 9500 1750 50  0001 C CNN "check"
	1    9500 1750
	0    -1   -1   0   
$EndComp
Wire Wire Line
	9500 1650 9500 1500
$Comp
L driveshield-rescue:R_0603-devices R60
U 1 1 5F034196
P 9500 2100
F 0 "R60" H 9559 2146 50  0000 L CNN
F 1 "RES 220 10% 0603" H 9350 1900 50  0000 L CNN
F 2 "resistors:R_0603" H 9500 1950 50  0001 C CNN
F 3 "" H 9500 2100 50  0000 C CNN
F 4 "RC0603FR-07220RL" H 9500 2100 50  0001 C CNN "manf#"
F 5 "1" H 9500 2100 50  0001 C CNN "check"
	1    9500 2100
	1    0    0    -1  
$EndComp
Wire Wire Line
	9500 2000 9500 1850
Wire Wire Line
	9500 2200 9500 2600
$Comp
L driveshield-rescue:Led_Small-devices D15
U 1 1 5F036F30
P 8800 1700
F 0 "D15" V 8891 1632 50  0000 R CNN
F 1 "Led_Small" V 8800 1632 50  0000 R CNN
F 2 "LEDs:LED_1206" V 8709 1632 50  0000 R CNN
F 3 "" V 8800 1700 50  0000 C CNN
F 4 "LTST-C150GKT" H 8800 1700 50  0001 C CNN "manf#"
F 5 "1" H 8800 1700 50  0001 C CNN "check"
	1    8800 1700
	0    -1   -1   0   
$EndComp
Wire Wire Line
	8800 1600 8800 1450
$Comp
L driveshield-rescue:R_0603-devices R59
U 1 1 5F036F37
P 8800 2050
F 0 "R59" H 8859 2096 50  0000 L CNN
F 1 "RES 510 5% 0603" H 8650 1900 50  0000 L CNN
F 2 "resistors:R_0603" H 8800 1900 50  0001 C CNN
F 3 "" H 8800 2050 50  0000 C CNN
F 4 "RMCF0603JT510R" H 8800 2050 50  0001 C CNN "manf#"
F 5 "1" H 8800 2050 50  0001 C CNN "check"
	1    8800 2050
	1    0    0    -1  
$EndComp
Wire Wire Line
	8800 1950 8800 1800
Wire Wire Line
	8800 2150 8800 2550
$Comp
L driveshield-rescue:GND-power-supply #PWR0107
U 1 1 5F03ADF7
P 9500 2600
F 0 "#PWR0107" H 9500 2350 50  0001 C CNN
F 1 "GND" H 9505 2427 50  0000 C CNN
F 2 "" H 9500 2600 50  0000 C CNN
F 3 "" H 9500 2600 50  0000 C CNN
	1    9500 2600
	1    0    0    -1  
$EndComp
$Comp
L driveshield-rescue:GND-power-supply #PWR0108
U 1 1 5F03D971
P 8800 2550
F 0 "#PWR0108" H 8800 2300 50  0001 C CNN
F 1 "GND" H 8805 2377 50  0000 C CNN
F 2 "" H 8800 2550 50  0000 C CNN
F 3 "" H 8800 2550 50  0000 C CNN
	1    8800 2550
	1    0    0    -1  
$EndComp
$Comp
L driveshield-rescue:+3.3V-power-supply #PWR0109
U 1 1 5F0404AD
P 9500 1450
F 0 "#PWR0109" H 9500 1300 50  0001 C CNN
F 1 "+3.3V" H 9515 1623 50  0000 C CNN
F 2 "" H 9500 1450 50  0000 C CNN
F 3 "" H 9500 1450 50  0000 C CNN
	1    9500 1450
	1    0    0    -1  
$EndComp
$Comp
L driveshield-rescue:+6V-power-supply #PWR0110
U 1 1 5F040B33
P 8800 1400
F 0 "#PWR0110" H 8800 1250 50  0001 C CNN
F 1 "+6V" H 8815 1573 50  0000 C CNN
F 2 "" H 8800 1400 50  0000 C CNN
F 3 "" H 8800 1400 50  0000 C CNN
	1    8800 1400
	1    0    0    -1  
$EndComp
Text Notes 8050 800  0    50   ~ 0
Option 2 Power LEDs for removal omit
Wire Notes Line
	2950 3700 2950 5450
Wire Notes Line
	1500 5450 1500 3700
Text Notes 1600 4200 0    50   ~ 0
Option 3a Cutoff Voltage\nconfiguration to remove omit\n\nHere:\nVon 7.50 V\nVoff 6.92 V 
Text Notes 3950 3850 0    50   ~ 0
size recommended by datasheet
$Comp
L driveshield-rescue:TEST_1P-mechanical-connectors W3
U 1 1 6042C0C2
P 8300 1550
F 0 "W3" H 8358 1668 50  0000 L CNN
F 1 "TEST_1P" H 8358 1577 50  0000 L CNN
F 2 "wire_pads:SolderWirePad_single_1mmSMD" H 8358 1531 50  0001 L CNN
F 3 "" H 8500 1550 50  0000 C CNN
F 4 "1" H 8300 1550 50  0001 C CNN "DNP"
	1    8300 1550
	1    0    0    -1  
$EndComp
Wire Wire Line
	8300 1550 8150 1550
Connection ~ 8150 1550
Wire Wire Line
	8150 1550 8150 1500
$Comp
L driveshield-rescue:TEST_1P-mechanical-connectors W4
U 1 1 60431653
P 8950 1450
F 0 "W4" H 9008 1568 50  0000 L CNN
F 1 "TEST_1P" H 9008 1477 50  0000 L CNN
F 2 "wire_pads:SolderWirePad_single_1mmSMD" H 9008 1431 50  0001 L CNN
F 3 "" H 9150 1450 50  0000 C CNN
F 4 "1" H 8950 1450 50  0001 C CNN "DNP"
	1    8950 1450
	1    0    0    -1  
$EndComp
$Comp
L driveshield-rescue:TEST_1P-mechanical-connectors W5
U 1 1 604347B1
P 9650 1500
F 0 "W5" H 9708 1618 50  0000 L CNN
F 1 "TEST_1P" H 9708 1527 50  0000 L CNN
F 2 "wire_pads:SolderWirePad_single_1mmSMD" H 9708 1481 50  0001 L CNN
F 3 "" H 9850 1500 50  0000 C CNN
F 4 "1" H 9650 1500 50  0001 C CNN "DNP"
	1    9650 1500
	1    0    0    -1  
$EndComp
Wire Wire Line
	9650 1500 9500 1500
Connection ~ 9500 1500
Wire Wire Line
	9500 1500 9500 1450
Wire Wire Line
	10350 2150 10350 2250
Wire Wire Line
	10500 2250 10350 2250
Connection ~ 10350 2250
Wire Wire Line
	10350 2250 10350 2350
Text Notes 3500 3400 0    50   ~ 0
Option 3 generate 6V for Servos from VBATT, to remove omit and close JP9
Wire Wire Line
	8800 1450 8950 1450
Connection ~ 8800 1450
Wire Wire Line
	8800 1450 8800 1400
$Comp
L driveshield-rescue:Jumper_NO_Small-devices JP?
U 1 1 5F055617
P 10100 3850
AR Path="/5F6B3792/5F055617" Ref="JP?"  Part="1" 
AR Path="/5EB2E969/5F055617" Ref="JP?"  Part="1" 
AR Path="/5EAA17D5/5F055617" Ref="JP9"  Part="1" 
F 0 "JP9" H 10100 3800 50  0000 C CNN
F 1 "Jumper_solder" H 10110 3790 50  0001 C CNN
F 2 "wire_pads:SolderJumper_3mm" H 10100 3700 50  0000 C CNN
F 3 "" H 10100 3850 50  0000 C CNN
F 4 "1" H 10100 3850 50  0001 C CNN "DNP"
	1    10100 3850
	-1   0    0    -1  
$EndComp
Wire Wire Line
	10000 3850 9800 3850
Wire Wire Line
	10200 3850 10400 3850
Wire Wire Line
	9800 3850 9800 3700
Wire Wire Line
	10400 3850 10400 3700
$Comp
L driveshield-rescue:+BATT-power-supply #PWR0125
U 1 1 5F068AC0
P 9800 3700
F 0 "#PWR0125" H 9800 3550 50  0001 C CNN
F 1 "+BATT" H 9815 3873 50  0000 C CNN
F 2 "" H 9800 3700 50  0000 C CNN
F 3 "" H 9800 3700 50  0000 C CNN
	1    9800 3700
	1    0    0    -1  
$EndComp
$Comp
L driveshield-rescue:+6V-power-supply #PWR0126
U 1 1 5F0691D3
P 10400 3700
F 0 "#PWR0126" H 10400 3550 50  0001 C CNN
F 1 "+6V" H 10415 3873 50  0000 C CNN
F 2 "" H 10400 3700 50  0000 C CNN
F 3 "" H 10400 3700 50  0000 C CNN
	1    10400 3700
	1    0    0    -1  
$EndComp
Wire Notes Line
	1500 5450 2950 5450
Wire Notes Line
	1500 3700 2950 3700
Connection ~ 8350 5400
Wire Wire Line
	8350 5400 8350 5450
Wire Wire Line
	7250 5400 8350 5400
Wire Wire Line
	8350 5250 8350 5400
Wire Notes Line
	2400 600  2400 2850
Wire Notes Line
	4600 600  4600 2850
Text Notes 2600 2650 0    50   ~ 0
This protection does not prevent current trough\nanother GND connection like a scope.  Use\ncaution when wiring a new connector.
$Comp
L driveshield-rescue:PWR_FLAG-power-supply #FLG0101
U 1 1 5F34A0BA
P 7150 1150
F 0 "#FLG0101" H 7150 1245 50  0001 C CNN
F 1 "PWR_FLAG" V 7150 1328 50  0000 L CNN
F 2 "" H 7150 1150 50  0000 C CNN
F 3 "" H 7150 1150 50  0000 C CNN
	1    7150 1150
	0    1    -1   0   
$EndComp
$Comp
L driveshield-rescue:PWR_FLAG-power-supply #FLG0102
U 1 1 5F34E505
P 1550 2350
F 0 "#FLG0102" H 1550 2445 50  0001 C CNN
F 1 "PWR_FLAG" V 1550 2527 50  0000 L CNN
F 2 "" H 1550 2350 50  0000 C CNN
F 3 "" H 1550 2350 50  0000 C CNN
	1    1550 2350
	0    -1   -1   0   
$EndComp
Connection ~ 1550 2350
Wire Wire Line
	1550 2350 1550 2250
Wire Wire Line
	7150 1050 7150 1150
Wire Wire Line
	8350 4600 8350 4700
Connection ~ 7150 1150
Wire Wire Line
	7150 1150 7150 1300
Wire Wire Line
	1550 1300 2000 1300
$Comp
L driveshield-rescue:PWR_FLAG-power-supply #FLG0104
U 1 1 5F38C793
P 8350 4700
F 0 "#FLG0104" H 8350 4795 50  0001 C CNN
F 1 "PWR_FLAG" V 8350 4878 50  0000 L CNN
F 2 "" H 8350 4700 50  0000 C CNN
F 3 "" H 8350 4700 50  0000 C CNN
	1    8350 4700
	0    1    1    0   
$EndComp
Connection ~ 8350 4700
Wire Wire Line
	8350 4700 8350 4800
$EndSCHEMATC
