EESchema Schematic File Version 4
EELAYER 30 0
EELAYER END
$Descr A4 11693 8268
encoding utf-8
Sheet 3 10
Title "nxpboard"
Date "2020-08-08"
Rev "1.1"
Comp "THD"
Comment1 "Jonas Wühr"
Comment2 "Lucas Bartosch"
Comment3 ""
Comment4 ""
$EndDescr
$Comp
L driveshield-rescue:IFX007T-motor-driver U3
U 1 1 5EAE1873
P 8200 1650
F 0 "U3" H 8250 2125 50  0000 C CNN
F 1 "IFX007T" H 8250 2034 50  0000 C CNN
F 2 "SOT_TO:TO-263-7Lead" H 8200 1650 50  0001 C CNN
F 3 "" H 8200 1650 50  0001 C CNN
F 4 "IFX007TAUMA1" H 8200 1650 50  0001 C CNN "manf#"
F 5 "1" H 8200 1650 50  0001 C CNN "check"
	1    8200 1650
	1    0    0    -1  
$EndComp
$Comp
L driveshield-rescue:C_0603-devices C5
U 1 1 5EAE1879
P 8950 1450
F 0 "C5" H 9042 1496 50  0000 L CNN
F 1 "CAP CER 220nF 6V 0603" H 9042 1405 50  0000 L CNN
F 2 "capacitors:C_0603" H 8950 1300 50  0001 C CNN
F 3 "" H 8950 1450 50  0000 C CNN
F 4 "C0603C224Z4VACTU" H 8950 1450 50  0001 C CNN "manf#"
F 5 "1" H 8950 1450 50  0001 C CNN "check"
	1    8950 1450
	1    0    0    -1  
$EndComp
$Comp
L driveshield-rescue:C_0603-devices C6
U 1 1 5EAE187F
P 8950 1750
F 0 "C6" H 9042 1796 50  0000 L CNN
F 1 "CAP CER 220nF 6V 0603" H 9042 1705 50  0000 L CNN
F 2 "capacitors:C_0603" H 8950 1600 50  0001 C CNN
F 3 "" H 8950 1750 50  0000 C CNN
F 4 "C0603C224Z4VACTU" H 8950 1750 50  0001 C CNN "manf#"
F 5 "1" H 8950 1750 50  0001 C CNN "check"
	1    8950 1750
	1    0    0    -1  
$EndComp
$Comp
L driveshield-rescue:C_0603-devices C9
U 1 1 5EAE1885
P 9450 1300
F 0 "C9" H 9542 1346 50  0000 L CNN
F 1 "CAP CER 100nF 6V 0603" H 9542 1255 50  0000 L CNN
F 2 "capacitors:C_0603" H 9450 1150 50  0001 C CNN
F 3 "" H 9450 1300 50  0000 C CNN
F 4 "C0603C104M4RACTU" H 9450 1300 50  0001 C CNN "manf#"
F 5 "1" H 9450 1300 50  0001 C CNN "check"
	1    9450 1300
	1    0    0    -1  
$EndComp
$Comp
L driveshield-rescue:R_0603-devices R14
U 1 1 5EAE188B
P 7200 2150
F 0 "R14" H 7259 2196 50  0000 L CNN
F 1 "RES 510 5% 0603" H 7259 2105 50  0000 L CNN
F 2 "resistors:R_0603" H 7200 2000 50  0001 C CNN
F 3 "" H 7200 2150 50  0000 C CNN
F 4 "RMCF0603JT510R" H 7200 2150 50  0001 C CNN "manf#"
F 5 "1" H 7200 2150 50  0001 C CNN "check"
	1    7200 2150
	1    0    0    -1  
$EndComp
$Comp
L driveshield-rescue:+BATT-power-supply #PWR022
U 1 1 5EAE1897
P 8950 1050
F 0 "#PWR022" H 8950 900 50  0001 C CNN
F 1 "+BATT" H 8965 1223 50  0000 C CNN
F 2 "" H 8950 1050 50  0000 C CNN
F 3 "" H 8950 1050 50  0000 C CNN
	1    8950 1050
	1    0    0    -1  
$EndComp
Wire Wire Line
	8650 1600 8750 1600
Wire Wire Line
	8750 1600 8750 1700
Wire Wire Line
	8750 1700 8650 1700
Wire Wire Line
	8950 1650 8950 1600
Wire Wire Line
	8750 1600 8950 1600
Connection ~ 8750 1600
Connection ~ 8950 1600
Wire Wire Line
	8950 1600 8950 1550
Wire Wire Line
	8950 1850 8950 1900
Wire Wire Line
	8950 1900 8650 1900
Connection ~ 8950 1900
Wire Wire Line
	8950 1900 8950 2300
Wire Wire Line
	7200 2250 7200 2300
Wire Wire Line
	7200 2300 7650 2300
Connection ~ 8950 2300
Wire Wire Line
	8950 2300 8950 2350
Wire Wire Line
	7650 2250 7650 2300
Connection ~ 7650 2300
Wire Wire Line
	7650 2300 8950 2300
Wire Wire Line
	7200 2050 7200 2000
Wire Wire Line
	7200 2000 7650 2000
Wire Wire Line
	7650 2000 7650 2050
Wire Wire Line
	7650 2000 7650 1800
Wire Wire Line
	7650 1800 7850 1800
Connection ~ 7650 2000
Wire Wire Line
	8650 1400 8800 1400
Wire Wire Line
	8800 1400 8800 1150
Wire Wire Line
	8800 1150 8950 1150
Wire Wire Line
	9450 1150 9450 1200
Wire Wire Line
	8950 1350 8950 1150
Connection ~ 8950 1150
Wire Wire Line
	8950 1150 9450 1150
Wire Wire Line
	8950 1050 8950 1150
Wire Wire Line
	9450 1450 9450 1400
$Comp
L driveshield-rescue:R_0603-devices R12
U 1 1 5EAE18C5
P 7150 1450
F 0 "R12" V 6954 1450 50  0000 C CNN
F 1 "RES 10k 10% 0603" V 7045 1450 50  0000 C CNN
F 2 "resistors:R_0603" H 7150 1300 50  0001 C CNN
F 3 "" H 7150 1450 50  0000 C CNN
F 4 "RC0603FR-0710KL" H 7150 1450 50  0001 C CNN "manf#"
F 5 "1" H 7150 1450 50  0001 C CNN "check"
	1    7150 1450
	0    1    1    0   
$EndComp
$Comp
L driveshield-rescue:R_0603-devices R13
U 1 1 5EAE18CB
P 7150 1750
F 0 "R13" V 6954 1750 50  0000 C CNN
F 1 "RES 10k 10% 0603" V 7045 1750 50  0000 C CNN
F 2 "resistors:R_0603" H 7150 1600 50  0001 C CNN
F 3 "" H 7150 1750 50  0000 C CNN
F 4 "RC0603FR-0710KL" H 7150 1750 50  0001 C CNN "manf#"
F 5 "1" H 7150 1750 50  0001 C CNN "check"
	1    7150 1750
	0    1    1    0   
$EndComp
Wire Wire Line
	7850 1600 7450 1600
Wire Wire Line
	7450 1600 7450 1450
Wire Wire Line
	7450 1450 7250 1450
Wire Wire Line
	7850 1700 7450 1700
Wire Wire Line
	7450 1700 7450 1750
Wire Wire Line
	7450 1750 7250 1750
$Comp
L driveshield-rescue:C_0603-devices C3
U 1 1 5EAE18D7
P 7650 2150
F 0 "C3" H 7742 2196 50  0000 L CNN
F 1 "CAP CER 100nF 6V 0603" H 7742 2105 50  0000 L CNN
F 2 "capacitors:C_0603" H 7650 2000 50  0001 C CNN
F 3 "" H 7650 2150 50  0000 C CNN
F 4 "C0603C104M4RACTU" H 7650 2150 50  0001 C CNN "manf#"
F 5 "1" H 7650 2150 50  0001 C CNN "check"
	1    7650 2150
	1    0    0    -1  
$EndComp
Wire Wire Line
	7850 1500 7600 1500
Wire Wire Line
	7600 1500 7600 1150
$Comp
L driveshield-rescue:IFX007T-motor-driver U4
U 1 1 5EAE621A
P 8250 3500
F 0 "U4" H 8300 3975 50  0000 C CNN
F 1 "IFX007T" H 8300 3884 50  0000 C CNN
F 2 "SOT_TO:TO-263-7Lead" H 8250 3500 50  0001 C CNN
F 3 "" H 8250 3500 50  0001 C CNN
F 4 "IFX007TAUMA1" H 8250 3500 50  0001 C CNN "manf#"
F 5 "1" H 8250 3500 50  0001 C CNN "check"
	1    8250 3500
	1    0    0    -1  
$EndComp
$Comp
L driveshield-rescue:C_0603-devices C7
U 1 1 5EAE6220
P 9000 3300
F 0 "C7" H 9092 3346 50  0000 L CNN
F 1 "CAP CER 220nF 6V 0603" H 9092 3255 50  0000 L CNN
F 2 "capacitors:C_0603" H 9000 3150 50  0001 C CNN
F 3 "" H 9000 3300 50  0000 C CNN
F 4 "C0603C224Z4VACTU" H 9000 3300 50  0001 C CNN "manf#"
F 5 "1" H 9000 3300 50  0001 C CNN "check"
	1    9000 3300
	1    0    0    -1  
$EndComp
$Comp
L driveshield-rescue:C_0603-devices C8
U 1 1 5EAE6226
P 9000 3600
F 0 "C8" H 9092 3646 50  0000 L CNN
F 1 "CAP CER 220nF 6V 0603" H 9092 3555 50  0000 L CNN
F 2 "capacitors:C_0603" H 9000 3450 50  0001 C CNN
F 3 "" H 9000 3600 50  0000 C CNN
F 4 "C0603C224Z4VACTU" H 9000 3600 50  0001 C CNN "manf#"
F 5 "1" H 9000 3600 50  0001 C CNN "check"
	1    9000 3600
	1    0    0    -1  
$EndComp
$Comp
L driveshield-rescue:C_0603-devices C10
U 1 1 5EAE622C
P 9400 3150
F 0 "C10" H 9492 3196 50  0000 L CNN
F 1 "CAP CER 100nF 6V 0603" H 9492 3105 50  0000 L CNN
F 2 "capacitors:C_0603" H 9400 3000 50  0001 C CNN
F 3 "" H 9400 3150 50  0000 C CNN
F 4 "C0603C104M4RACTU" H 9400 3150 50  0001 C CNN "manf#"
F 5 "1" H 9400 3150 50  0001 C CNN "check"
	1    9400 3150
	1    0    0    -1  
$EndComp
$Comp
L driveshield-rescue:R_0603-devices R17
U 1 1 5EAE6232
P 7250 4000
F 0 "R17" H 7309 4046 50  0000 L CNN
F 1 "RES 510 5% 0603" H 7309 3955 50  0000 L CNN
F 2 "resistors:R_0603" H 7250 3850 50  0001 C CNN
F 3 "" H 7250 4000 50  0000 C CNN
F 4 "RMCF0603JT510R" H 7250 4000 50  0001 C CNN "manf#"
F 5 "1" H 7250 4000 50  0001 C CNN "check"
	1    7250 4000
	1    0    0    -1  
$EndComp
$Comp
L driveshield-rescue:+BATT-power-supply #PWR024
U 1 1 5EAE623E
P 9000 2900
F 0 "#PWR024" H 9000 2750 50  0001 C CNN
F 1 "+BATT" H 9015 3073 50  0000 C CNN
F 2 "" H 9000 2900 50  0000 C CNN
F 3 "" H 9000 2900 50  0000 C CNN
	1    9000 2900
	1    0    0    -1  
$EndComp
Wire Wire Line
	8700 3450 8800 3450
Wire Wire Line
	8800 3450 8800 3550
Wire Wire Line
	8800 3550 8700 3550
Wire Wire Line
	9000 3500 9000 3450
Connection ~ 8800 3450
Connection ~ 9000 3450
Wire Wire Line
	9000 3450 9000 3400
Wire Wire Line
	9000 3700 9000 3750
Wire Wire Line
	9000 3750 8700 3750
Connection ~ 9000 3750
Wire Wire Line
	9000 3750 9000 4150
Wire Wire Line
	7250 4100 7250 4150
Wire Wire Line
	7250 4150 7700 4150
Connection ~ 9000 4150
Wire Wire Line
	9000 4150 9000 4200
Wire Wire Line
	7700 4100 7700 4150
Connection ~ 7700 4150
Wire Wire Line
	7700 4150 9000 4150
Wire Wire Line
	7250 3900 7250 3850
Wire Wire Line
	7250 3850 7700 3850
Wire Wire Line
	7700 3850 7700 3900
Wire Wire Line
	7700 3850 7700 3650
Wire Wire Line
	7700 3650 7900 3650
Connection ~ 7700 3850
Wire Wire Line
	8700 3250 8850 3250
Wire Wire Line
	8850 3250 8850 3000
Wire Wire Line
	8850 3000 9000 3000
Wire Wire Line
	9400 3000 9400 3050
Wire Wire Line
	9000 3200 9000 3000
Connection ~ 9000 3000
Wire Wire Line
	9000 3000 9400 3000
Wire Wire Line
	9000 2900 9000 3000
Wire Wire Line
	9400 3300 9400 3250
$Comp
L driveshield-rescue:R_0603-devices R15
U 1 1 5EAE626C
P 7200 3300
F 0 "R15" V 7004 3300 50  0000 C CNN
F 1 "RES 10k 10% 0603" V 7095 3300 50  0000 C CNN
F 2 "resistors:R_0603" H 7200 3150 50  0001 C CNN
F 3 "" H 7200 3300 50  0000 C CNN
F 4 "RC0603FR-0710KL" H 7200 3300 50  0001 C CNN "manf#"
F 5 "1" H 7200 3300 50  0001 C CNN "check"
	1    7200 3300
	0    1    1    0   
$EndComp
$Comp
L driveshield-rescue:R_0603-devices R16
U 1 1 5EAE6272
P 7200 3600
F 0 "R16" V 7004 3600 50  0000 C CNN
F 1 "RES 10k 10% 0603" V 7095 3600 50  0000 C CNN
F 2 "resistors:R_0603" H 7200 3450 50  0001 C CNN
F 3 "" H 7200 3600 50  0000 C CNN
F 4 "RC0603FR-0710KL" H 7200 3600 50  0001 C CNN "manf#"
F 5 "1" H 7200 3600 50  0001 C CNN "check"
	1    7200 3600
	0    1    1    0   
$EndComp
Wire Wire Line
	7900 3450 7500 3450
Wire Wire Line
	7500 3450 7500 3300
Wire Wire Line
	7500 3300 7300 3300
Wire Wire Line
	7900 3550 7500 3550
Wire Wire Line
	7500 3550 7500 3600
Wire Wire Line
	7500 3600 7300 3600
$Comp
L driveshield-rescue:C_0603-devices C4
U 1 1 5EAE627E
P 7700 4000
F 0 "C4" H 7792 4046 50  0000 L CNN
F 1 "CAP CER 100nF 6V 0603" H 7792 3955 50  0000 L CNN
F 2 "capacitors:C_0603" H 7700 3850 50  0001 C CNN
F 3 "" H 7700 4000 50  0000 C CNN
F 4 "C0603C104M4RACTU" H 7700 4000 50  0001 C CNN "manf#"
F 5 "1" H 7700 4000 50  0001 C CNN "check"
	1    7700 4000
	1    0    0    -1  
$EndComp
Wire Wire Line
	7900 3350 7650 3350
Wire Wire Line
	7650 3350 7650 3000
Wire Wire Line
	7650 3000 7100 3000
Text GLabel 6900 1750 0    50   Input ~ 0
MOTORS_ENBL
Text GLabel 6950 3600 0    50   Input ~ 0
MOTORS_ENBL
Text GLabel 6900 1450 0    50   Input ~ 0
MOTOR_B1
Text GLabel 6950 3300 0    50   Input ~ 0
MOTOR_B2
Wire Wire Line
	7050 1450 6900 1450
Wire Wire Line
	7050 1750 6900 1750
Wire Wire Line
	7100 3300 6950 3300
Wire Wire Line
	7100 3600 6950 3600
Text GLabel 7050 1150 0    50   Output ~ 0
MOTOR_B_SENS
$Comp
L driveshield-rescue:WR-TBL_691313710002-mechanical-connectors P3
U 1 1 5EB3AEBA
P 10100 2450
F 0 "P3" H 10178 2491 50  0000 L CNN
F 1 "WR-TBL_691313710002" H 10178 2400 50  0000 L CNN
F 2 "mechanical-connectors:WR-TBL_691313710002" H 10000 2500 50  0001 C CNN
F 3 "" H 10100 2450 50  0000 C CNN
F 4 "691313710002" H 10100 2450 50  0001 C CNN "manf#"
F 5 "1" H 10100 2450 50  0001 C CNN "check"
	1    10100 2450
	1    0    0    -1  
$EndComp
$Comp
L driveshield-rescue:IFX007T-motor-driver U7
U 1 1 5EB7EED0
P 2950 1600
F 0 "U7" H 3000 2075 50  0000 C CNN
F 1 "IFX007T" H 3000 1984 50  0000 C CNN
F 2 "SOT_TO:TO-263-7Lead" H 2950 1600 50  0001 C CNN
F 3 "" H 2950 1600 50  0001 C CNN
F 4 "IFX007TAUMA1" H 2950 1600 50  0001 C CNN "manf#"
F 5 "1" H 2950 1600 50  0001 C CNN "check"
	1    2950 1600
	1    0    0    -1  
$EndComp
$Comp
L driveshield-rescue:C_0603-devices C15
U 1 1 5EB7EED6
P 3700 1400
F 0 "C15" H 3792 1446 50  0000 L CNN
F 1 "CAP CER 220nF 6V 0603" H 3792 1355 50  0000 L CNN
F 2 "capacitors:C_0603" H 3700 1250 50  0001 C CNN
F 3 "" H 3700 1400 50  0000 C CNN
F 4 "C0603C224Z4VACTU" H 3700 1400 50  0001 C CNN "manf#"
F 5 "1" H 3700 1400 50  0001 C CNN "check"
	1    3700 1400
	1    0    0    -1  
$EndComp
$Comp
L driveshield-rescue:C_0603-devices C16
U 1 1 5EB7EEDC
P 3700 1700
F 0 "C16" H 3792 1746 50  0000 L CNN
F 1 "CAP CER 220nF 6V 0603" H 3792 1655 50  0000 L CNN
F 2 "capacitors:C_0603" H 3700 1550 50  0001 C CNN
F 3 "" H 3700 1700 50  0000 C CNN
F 4 "C0603C224Z4VACTU" H 3700 1700 50  0001 C CNN "manf#"
F 5 "1" H 3700 1700 50  0001 C CNN "check"
	1    3700 1700
	1    0    0    -1  
$EndComp
$Comp
L driveshield-rescue:C_0603-devices C19
U 1 1 5EB7EEE2
P 4200 1250
F 0 "C19" H 4292 1296 50  0000 L CNN
F 1 "CAP CER 100nF 6V 0603" H 4292 1205 50  0000 L CNN
F 2 "capacitors:C_0603" H 4200 1100 50  0001 C CNN
F 3 "" H 4200 1250 50  0000 C CNN
F 4 "C0603C104M4RACTU" H 4200 1250 50  0001 C CNN "manf#"
F 5 "1" H 4200 1250 50  0001 C CNN "check"
	1    4200 1250
	1    0    0    -1  
$EndComp
$Comp
L driveshield-rescue:R_0603-devices R33
U 1 1 5EB7EEE8
P 1950 2100
F 0 "R33" H 2009 2146 50  0000 L CNN
F 1 "RES 510 5% 0603" H 2009 2055 50  0000 L CNN
F 2 "resistors:R_0603" H 1950 1950 50  0001 C CNN
F 3 "" H 1950 2100 50  0000 C CNN
F 4 "RMCF0603JT510R" H 1950 2100 50  0001 C CNN "manf#"
F 5 "1" H 1950 2100 50  0001 C CNN "check"
	1    1950 2100
	1    0    0    -1  
$EndComp
$Comp
L driveshield-rescue:+BATT-power-supply #PWR036
U 1 1 5EB7EEF4
P 3700 1000
F 0 "#PWR036" H 3700 850 50  0001 C CNN
F 1 "+BATT" H 3715 1173 50  0000 C CNN
F 2 "" H 3700 1000 50  0000 C CNN
F 3 "" H 3700 1000 50  0000 C CNN
	1    3700 1000
	1    0    0    -1  
$EndComp
Wire Wire Line
	3400 1550 3500 1550
Wire Wire Line
	3500 1550 3500 1650
Wire Wire Line
	3500 1650 3400 1650
Wire Wire Line
	3700 1600 3700 1550
Wire Wire Line
	3500 1550 3700 1550
Connection ~ 3500 1550
Connection ~ 3700 1550
Wire Wire Line
	3700 1550 3700 1500
Wire Wire Line
	3700 1800 3700 1850
Wire Wire Line
	3700 1850 3400 1850
Connection ~ 3700 1850
Wire Wire Line
	3700 1850 3700 2250
Wire Wire Line
	1950 2200 1950 2250
Wire Wire Line
	1950 2250 2400 2250
Connection ~ 3700 2250
Wire Wire Line
	3700 2250 3700 2300
Wire Wire Line
	2400 2200 2400 2250
Connection ~ 2400 2250
Wire Wire Line
	2400 2250 3700 2250
Wire Wire Line
	1950 2000 1950 1950
Wire Wire Line
	1950 1950 2400 1950
Wire Wire Line
	2400 1950 2400 2000
Wire Wire Line
	2400 1950 2400 1750
Wire Wire Line
	2400 1750 2600 1750
Connection ~ 2400 1950
Wire Wire Line
	3400 1350 3550 1350
Wire Wire Line
	3550 1350 3550 1100
Wire Wire Line
	3550 1100 3700 1100
Wire Wire Line
	4200 1100 4200 1150
Wire Wire Line
	3700 1300 3700 1100
Connection ~ 3700 1100
Wire Wire Line
	3700 1100 4200 1100
Wire Wire Line
	3700 1000 3700 1100
Wire Wire Line
	4200 1400 4200 1350
$Comp
L driveshield-rescue:R_0603-devices R31
U 1 1 5EB7EF22
P 1900 1400
F 0 "R31" V 1704 1400 50  0000 C CNN
F 1 "RES 10k 10% 0603" V 1795 1400 50  0000 C CNN
F 2 "resistors:R_0603" H 1900 1250 50  0001 C CNN
F 3 "" H 1900 1400 50  0000 C CNN
F 4 "RC0603FR-0710KL" H 1900 1400 50  0001 C CNN "manf#"
F 5 "1" H 1900 1400 50  0001 C CNN "check"
	1    1900 1400
	0    1    1    0   
$EndComp
$Comp
L driveshield-rescue:R_0603-devices R32
U 1 1 5EB7EF28
P 1900 1700
F 0 "R32" V 1704 1700 50  0000 C CNN
F 1 "RES 10k 10% 0603" V 1795 1700 50  0000 C CNN
F 2 "resistors:R_0603" H 1900 1550 50  0001 C CNN
F 3 "" H 1900 1700 50  0000 C CNN
F 4 "RC0603FR-0710KL" H 1900 1700 50  0001 C CNN "manf#"
F 5 "1" H 1900 1700 50  0001 C CNN "check"
	1    1900 1700
	0    1    1    0   
$EndComp
Wire Wire Line
	2600 1550 2200 1550
Wire Wire Line
	2200 1550 2200 1400
Wire Wire Line
	2200 1400 2000 1400
Wire Wire Line
	2600 1650 2200 1650
Wire Wire Line
	2200 1650 2200 1700
Wire Wire Line
	2200 1700 2000 1700
$Comp
L driveshield-rescue:C_0603-devices C13
U 1 1 5EB7EF34
P 2400 2100
F 0 "C13" H 2492 2146 50  0000 L CNN
F 1 "CAP CER 100nF 6V 0603" H 2492 2055 50  0000 L CNN
F 2 "capacitors:C_0603" H 2400 1950 50  0001 C CNN
F 3 "" H 2400 2100 50  0000 C CNN
F 4 "C0603C104M4RACTU" H 2400 2100 50  0001 C CNN "manf#"
F 5 "1" H 2400 2100 50  0001 C CNN "check"
	1    2400 2100
	1    0    0    -1  
$EndComp
Wire Wire Line
	2600 1450 2350 1450
Wire Wire Line
	2350 1450 2350 1100
Wire Wire Line
	2350 1100 1800 1100
Text Label 1800 1100 0    50   ~ 0
SENSE_A
$Comp
L driveshield-rescue:IFX007T-motor-driver U8
U 1 1 5EB7EF3E
P 3000 3450
F 0 "U8" H 3050 3925 50  0000 C CNN
F 1 "IFX007T" H 3050 3834 50  0000 C CNN
F 2 "SOT_TO:TO-263-7Lead" H 3000 3450 50  0001 C CNN
F 3 "" H 3000 3450 50  0001 C CNN
F 4 "IFX007TAUMA1" H 3000 3450 50  0001 C CNN "manf#"
F 5 "1" H 3000 3450 50  0001 C CNN "check"
	1    3000 3450
	1    0    0    -1  
$EndComp
$Comp
L driveshield-rescue:C_0603-devices C17
U 1 1 5EB7EF44
P 3750 3250
F 0 "C17" H 3842 3296 50  0000 L CNN
F 1 "CAP CER 220nF 6V 0603" H 3842 3205 50  0000 L CNN
F 2 "capacitors:C_0603" H 3750 3100 50  0001 C CNN
F 3 "" H 3750 3250 50  0000 C CNN
F 4 "C0603C224Z4VACTU" H 3750 3250 50  0001 C CNN "manf#"
F 5 "1" H 3750 3250 50  0001 C CNN "check"
	1    3750 3250
	1    0    0    -1  
$EndComp
$Comp
L driveshield-rescue:C_0603-devices C18
U 1 1 5EB7EF4A
P 3750 3550
F 0 "C18" H 3842 3596 50  0000 L CNN
F 1 "CAP CER 220nF 6V 0603" H 3842 3505 50  0000 L CNN
F 2 "capacitors:C_0603" H 3750 3400 50  0001 C CNN
F 3 "" H 3750 3550 50  0000 C CNN
F 4 "C0603C224Z4VACTU" H 3750 3550 50  0001 C CNN "manf#"
F 5 "1" H 3750 3550 50  0001 C CNN "check"
	1    3750 3550
	1    0    0    -1  
$EndComp
$Comp
L driveshield-rescue:C_0603-devices C20
U 1 1 5EB7EF50
P 4250 3100
F 0 "C20" H 4342 3146 50  0000 L CNN
F 1 "CAP CER 100nF 6V 0603" H 4342 3055 50  0000 L CNN
F 2 "capacitors:C_0603" H 4250 2950 50  0001 C CNN
F 3 "" H 4250 3100 50  0000 C CNN
F 4 "C0603C104M4RACTU" H 4250 3100 50  0001 C CNN "manf#"
F 5 "1" H 4250 3100 50  0001 C CNN "check"
	1    4250 3100
	1    0    0    -1  
$EndComp
$Comp
L driveshield-rescue:R_0603-devices R36
U 1 1 5EB7EF56
P 2000 3950
F 0 "R36" H 2059 3996 50  0000 L CNN
F 1 "RES 510 5% 0603" H 2059 3905 50  0000 L CNN
F 2 "resistors:R_0603" H 2000 3800 50  0001 C CNN
F 3 "" H 2000 3950 50  0000 C CNN
F 4 "RMCF0603JT510R" H 2000 3950 50  0001 C CNN "manf#"
F 5 "1" H 2000 3950 50  0001 C CNN "check"
	1    2000 3950
	1    0    0    -1  
$EndComp
$Comp
L driveshield-rescue:+BATT-power-supply #PWR038
U 1 1 5EB7EF62
P 3750 2850
F 0 "#PWR038" H 3750 2700 50  0001 C CNN
F 1 "+BATT" H 3765 3023 50  0000 C CNN
F 2 "" H 3750 2850 50  0000 C CNN
F 3 "" H 3750 2850 50  0000 C CNN
	1    3750 2850
	1    0    0    -1  
$EndComp
Wire Wire Line
	3450 3400 3550 3400
Wire Wire Line
	3550 3400 3550 3500
Wire Wire Line
	3550 3500 3450 3500
Wire Wire Line
	3750 3450 3750 3400
Wire Wire Line
	3550 3400 3750 3400
Connection ~ 3550 3400
Connection ~ 3750 3400
Wire Wire Line
	3750 3400 3750 3350
Wire Wire Line
	3750 3650 3750 3700
Wire Wire Line
	3750 3700 3450 3700
Connection ~ 3750 3700
Wire Wire Line
	3750 3700 3750 4100
Wire Wire Line
	2000 4050 2000 4100
Wire Wire Line
	2000 4100 2450 4100
Connection ~ 3750 4100
Wire Wire Line
	3750 4100 3750 4150
Wire Wire Line
	2450 4050 2450 4100
Connection ~ 2450 4100
Wire Wire Line
	2450 4100 3750 4100
Wire Wire Line
	2000 3850 2000 3800
Wire Wire Line
	2000 3800 2450 3800
Wire Wire Line
	2450 3800 2450 3850
Wire Wire Line
	2450 3800 2450 3600
Wire Wire Line
	2450 3600 2650 3600
Connection ~ 2450 3800
Wire Wire Line
	3450 3200 3600 3200
Wire Wire Line
	3600 3200 3600 2950
Wire Wire Line
	3600 2950 3750 2950
Wire Wire Line
	4250 2950 4250 3000
Wire Wire Line
	3750 3150 3750 2950
Connection ~ 3750 2950
Wire Wire Line
	3750 2950 4250 2950
Wire Wire Line
	3750 2850 3750 2950
Wire Wire Line
	4250 3250 4250 3200
$Comp
L driveshield-rescue:R_0603-devices R34
U 1 1 5EB7EF90
P 1950 3250
F 0 "R34" V 1754 3250 50  0000 C CNN
F 1 "RES 10k 10% 0603" V 1845 3250 50  0000 C CNN
F 2 "resistors:R_0603" H 1950 3100 50  0001 C CNN
F 3 "" H 1950 3250 50  0000 C CNN
F 4 "RC0603FR-0710KL" H 1950 3250 50  0001 C CNN "manf#"
F 5 "1" H 1950 3250 50  0001 C CNN "check"
	1    1950 3250
	0    1    1    0   
$EndComp
$Comp
L driveshield-rescue:R_0603-devices R35
U 1 1 5EB7EF96
P 1950 3550
F 0 "R35" V 1754 3550 50  0000 C CNN
F 1 "RES 10k 10% 0603" V 1845 3550 50  0000 C CNN
F 2 "resistors:R_0603" H 1950 3400 50  0001 C CNN
F 3 "" H 1950 3550 50  0000 C CNN
F 4 "RC0603FR-0710KL" H 1950 3550 50  0001 C CNN "manf#"
F 5 "1" H 1950 3550 50  0001 C CNN "check"
	1    1950 3550
	0    1    1    0   
$EndComp
Wire Wire Line
	2650 3400 2250 3400
Wire Wire Line
	2250 3400 2250 3250
Wire Wire Line
	2250 3250 2050 3250
Wire Wire Line
	2650 3500 2250 3500
Wire Wire Line
	2250 3500 2250 3550
Wire Wire Line
	2250 3550 2050 3550
$Comp
L driveshield-rescue:C_0603-devices C14
U 1 1 5EB7EFA2
P 2450 3950
F 0 "C14" H 2542 3996 50  0000 L CNN
F 1 "CAP CER 100nF 6V 0603" H 2542 3905 50  0000 L CNN
F 2 "capacitors:C_0603" H 2450 3800 50  0001 C CNN
F 3 "" H 2450 3950 50  0000 C CNN
F 4 "C0603C104M4RACTU" H 2450 3950 50  0001 C CNN "manf#"
F 5 "1" H 2450 3950 50  0001 C CNN "check"
	1    2450 3950
	1    0    0    -1  
$EndComp
Wire Wire Line
	2650 3300 2400 3300
Wire Wire Line
	2400 3300 2400 2950
Wire Wire Line
	2400 2950 1850 2950
Text Label 1850 2950 0    50   ~ 0
SENSE_A
Text GLabel 1650 1700 0    50   Input ~ 0
MOTORS_ENBL
Text GLabel 1700 3550 0    50   Input ~ 0
MOTORS_ENBL
Text GLabel 1650 1400 0    50   Input ~ 0
MOTOR_A1
Text GLabel 1700 3250 0    50   Input ~ 0
MOTOR_A2
Wire Wire Line
	1800 1400 1650 1400
Wire Wire Line
	1800 1700 1650 1700
Wire Wire Line
	1850 3250 1700 3250
Wire Wire Line
	1850 3550 1700 3550
Text GLabel 1800 1100 0    50   Output ~ 0
MOTOR_A_SENS
$Comp
L driveshield-rescue:CP_Small-devices C23
U 1 1 5F095060
P 4650 1250
F 0 "C23" H 4738 1341 50  0000 L CNN
F 1 "CAP ELEC 47uF 10V 4x4.5" H 4738 1250 50  0000 L CNN
F 2 "capacitors:c_elec_4x4.5" H 4738 1159 50  0000 L CNN
F 3 "" H 4650 1250 50  0000 C CNN
F 4 "EEE-FT1C470AR" H 4650 1250 50  0001 C CNN "manf#"
F 5 "1" H 4650 1250 50  0001 C CNN "check"
	1    4650 1250
	1    0    0    -1  
$EndComp
$Comp
L driveshield-rescue:CP_Small-devices C12
U 1 1 5F09D54A
P 9950 1300
F 0 "C12" H 10038 1391 50  0000 L CNN
F 1 "CAP ELEC 47uF 10V 4x4.5" H 10038 1300 50  0000 L CNN
F 2 "capacitors:c_elec_4x4.5" H 10038 1209 50  0000 L CNN
F 3 "" H 9950 1300 50  0000 C CNN
F 4 "EEE-FT1C470AR" H 9950 1300 50  0001 C CNN "manf#"
F 5 "1" H 9950 1300 50  0001 C CNN "check"
	1    9950 1300
	1    0    0    -1  
$EndComp
Wire Wire Line
	9950 1200 9950 1150
Wire Wire Line
	9950 1150 9450 1150
Connection ~ 9450 1150
Wire Wire Line
	9950 1450 9950 1400
Wire Wire Line
	9450 1450 9950 1450
Wire Wire Line
	4650 1350 4650 1400
Wire Wire Line
	4650 1400 4200 1400
Wire Wire Line
	4200 1100 4650 1100
Wire Wire Line
	4650 1100 4650 1150
Connection ~ 4200 1100
Wire Wire Line
	9450 1500 9450 1450
Connection ~ 9450 1450
Wire Wire Line
	4200 1450 4200 1400
Connection ~ 4200 1400
$Comp
L driveshield-rescue:GND-power-supply #PWR023
U 1 1 5EB26922
P 8950 2350
F 0 "#PWR023" H 8950 2100 50  0001 C CNN
F 1 "GND" H 8955 2177 50  0000 C CNN
F 2 "" H 8950 2350 50  0000 C CNN
F 3 "" H 8950 2350 50  0000 C CNN
	1    8950 2350
	1    0    0    -1  
$EndComp
$Comp
L driveshield-rescue:GND-power-supply #PWR025
U 1 1 5EB29116
P 9000 4200
F 0 "#PWR025" H 9000 3950 50  0001 C CNN
F 1 "GND" H 9005 4027 50  0000 C CNN
F 2 "" H 9000 4200 50  0000 C CNN
F 3 "" H 9000 4200 50  0000 C CNN
	1    9000 4200
	1    0    0    -1  
$EndComp
$Comp
L driveshield-rescue:GND-power-supply #PWR037
U 1 1 5EB2AF89
P 3700 2300
F 0 "#PWR037" H 3700 2050 50  0001 C CNN
F 1 "GND" H 3705 2127 50  0000 C CNN
F 2 "" H 3700 2300 50  0000 C CNN
F 3 "" H 3700 2300 50  0000 C CNN
	1    3700 2300
	1    0    0    -1  
$EndComp
$Comp
L driveshield-rescue:GND-power-supply #PWR040
U 1 1 5EB2D4BE
P 4200 1450
F 0 "#PWR040" H 4200 1200 50  0001 C CNN
F 1 "GND" H 4205 1277 50  0000 C CNN
F 2 "" H 4200 1450 50  0000 C CNN
F 3 "" H 4200 1450 50  0000 C CNN
	1    4200 1450
	1    0    0    -1  
$EndComp
$Comp
L driveshield-rescue:GND-power-supply #PWR039
U 1 1 5EB2E821
P 3750 4150
F 0 "#PWR039" H 3750 3900 50  0001 C CNN
F 1 "GND" H 3755 3977 50  0000 C CNN
F 2 "" H 3750 4150 50  0000 C CNN
F 3 "" H 3750 4150 50  0000 C CNN
	1    3750 4150
	1    0    0    -1  
$EndComp
$Comp
L driveshield-rescue:GND-power-supply #PWR026
U 1 1 5EB334E1
P 9450 1500
F 0 "#PWR026" H 9450 1250 50  0001 C CNN
F 1 "GND" H 9455 1327 50  0000 C CNN
F 2 "" H 9450 1500 50  0000 C CNN
F 3 "" H 9450 1500 50  0000 C CNN
	1    9450 1500
	1    0    0    -1  
$EndComp
$Comp
L driveshield-rescue:GND-power-supply #PWR027
U 1 1 5EB3539A
P 9400 3300
F 0 "#PWR027" H 9400 3050 50  0001 C CNN
F 1 "GND" H 9405 3127 50  0000 C CNN
F 2 "" H 9400 3300 50  0000 C CNN
F 3 "" H 9400 3300 50  0000 C CNN
	1    9400 3300
	1    0    0    -1  
$EndComp
$Comp
L driveshield-rescue:GND-power-supply #PWR041
U 1 1 5EB76B08
P 4250 3250
F 0 "#PWR041" H 4250 3000 50  0001 C CNN
F 1 "GND" H 4255 3077 50  0000 C CNN
F 2 "" H 4250 3250 50  0000 C CNN
F 3 "" H 4250 3250 50  0000 C CNN
	1    4250 3250
	1    0    0    -1  
$EndComp
$Comp
L driveshield-rescue:CP_Small-devices C26
U 1 1 5EB9D7B8
P 8800 5650
F 0 "C26" H 8888 5741 50  0000 L CNN
F 1 "CAP ELEC 47uF 10V 8x6.7" H 8888 5650 50  0000 L CNN
F 2 "capacitors:c_elec_8x6.7" H 8888 5559 50  0000 L CNN
F 3 "" H 8800 5650 50  0000 C CNN
F 4 "" H 8800 5650 50  0001 C CNN "DNP"
F 5 "Vfull" H 8800 5650 50  0001 C CNN "variant"
F 6 "1" H 8800 5650 50  0001 C CNN "check"
F 7 "UWX1A470MCL1GB" H 8800 5650 50  0001 C CNN "manf#"
	1    8800 5650
	1    0    0    -1  
$EndComp
Wire Wire Line
	8800 5550 8800 5450
Wire Wire Line
	8800 5750 8800 5800
$Comp
L driveshield-rescue:CP_Small-devices C25
U 1 1 5EBCB34B
P 8450 5650
F 0 "C25" H 8538 5741 50  0000 L CNN
F 1 "CAP ELEC 47uF 10V 8x6.7" H 8538 5650 50  0001 L CNN
F 2 "capacitors:c_elec_8x6.7" H 8538 5559 50  0001 L CNN
F 3 "" H 8450 5650 50  0000 C CNN
F 4 "" H 8450 5650 50  0001 C CNN "DNP"
F 5 "Vfull" H 8450 5650 50  0001 C CNN "variant"
F 6 "1" H 8450 5650 50  0001 C CNN "check"
F 7 "UWX1A470MCL1GB" H 8450 5650 50  0001 C CNN "manf#"
	1    8450 5650
	1    0    0    -1  
$EndComp
Wire Wire Line
	8450 5550 8450 5450
$Comp
L driveshield-rescue:CP_Small-devices C24
U 1 1 5EBDF0A0
P 8100 5650
F 0 "C24" H 8188 5741 50  0000 L CNN
F 1 "CAP ELEC 47uF 10V 8x6.7" H 8188 5650 50  0001 L CNN
F 2 "capacitors:c_elec_8x6.7" H 8188 5559 50  0001 L CNN
F 3 "" H 8100 5650 50  0000 C CNN
F 4 "" H 8100 5650 50  0001 C CNN "DNP"
F 5 "Vfull" H 8100 5650 50  0001 C CNN "variant"
F 6 "1" H 8100 5650 50  0001 C CNN "check"
F 7 "UWX1A470MCL1GB" H 8100 5650 50  0001 C CNN "manf#"
	1    8100 5650
	1    0    0    -1  
$EndComp
$Comp
L driveshield-rescue:+BATT-power-supply #PWR042
U 1 1 5EBDF0A6
P 7800 5350
F 0 "#PWR042" H 7800 5200 50  0001 C CNN
F 1 "+BATT" H 7815 5523 50  0000 C CNN
F 2 "" H 7800 5350 50  0000 C CNN
F 3 "" H 7800 5350 50  0000 C CNN
	1    7800 5350
	1    0    0    -1  
$EndComp
$Comp
L driveshield-rescue:CP_Small-devices C22
U 1 1 5EB9C187
P 7800 5650
F 0 "C22" H 7888 5741 50  0000 L CNN
F 1 "CAP ELEC 47uF 10V 8x6.7" H 7850 5400 50  0001 L CNN
F 2 "capacitors:c_elec_8x6.7" H 7888 5559 50  0001 L CNN
F 3 "" H 7800 5650 50  0000 C CNN
F 4 "" H 7800 5650 50  0001 C CNN "DNP"
F 5 "Vfull" H 7800 5650 50  0001 C CNN "variant"
F 6 "1" H 7800 5650 50  0001 C CNN "check"
F 7 "UWX1A470MCL1GB" H 7800 5650 50  0001 C CNN "manf#"
	1    7800 5650
	1    0    0    -1  
$EndComp
$Comp
L driveshield-rescue:GND-power-supply #PWR043
U 1 1 5EB9C18D
P 7800 5900
F 0 "#PWR043" H 7800 5650 50  0001 C CNN
F 1 "GND" H 7805 5727 50  0000 C CNN
F 2 "" H 7800 5900 50  0000 C CNN
F 3 "" H 7800 5900 50  0000 C CNN
	1    7800 5900
	1    0    0    -1  
$EndComp
Wire Wire Line
	7800 5750 7800 5800
Wire Wire Line
	7800 5350 7800 5450
Wire Wire Line
	7800 5450 8100 5450
Connection ~ 7800 5450
Wire Wire Line
	7800 5450 7800 5550
Connection ~ 8450 5450
Wire Wire Line
	8450 5450 8800 5450
Wire Wire Line
	8100 5550 8100 5450
Connection ~ 8100 5450
Wire Wire Line
	8100 5450 8450 5450
Wire Wire Line
	7800 5800 8100 5800
Connection ~ 7800 5800
Wire Wire Line
	7800 5800 7800 5900
Text Notes 8100 5250 0    50   ~ 0
Option 3 buffer capacitors
Wire Wire Line
	8100 5750 8100 5800
Connection ~ 8100 5800
Wire Wire Line
	8100 5800 8450 5800
Wire Wire Line
	8450 5750 8450 5800
Connection ~ 8450 5800
Wire Wire Line
	8450 5800 8800 5800
Text Notes 9500 1000 0    50   ~ 0
change rating for different input voltage
Wire Wire Line
	9850 2500 9900 2500
Wire Wire Line
	9000 3450 9850 3450
Wire Wire Line
	8800 3450 9000 3450
Wire Wire Line
	9850 2400 9900 2400
Wire Wire Line
	9850 1600 8950 1600
Wire Notes Line
	6550 7600 6550 4750
Wire Wire Line
	7600 1150 7050 1150
Text Label 7100 3000 0    50   ~ 0
SENSE_B
Text Label 7050 1150 0    50   ~ 0
SENSE_B
Text Label 9650 1600 0    50   ~ 0
OUT_B1
Text Label 9500 3450 0    50   ~ 0
OUT_B2
Wire Wire Line
	9850 3450 9850 2500
Wire Wire Line
	9850 1600 9850 2400
Wire Wire Line
	3750 3400 4750 3400
Wire Wire Line
	3700 1550 4750 1550
Wire Wire Line
	4750 2450 5000 2450
Wire Wire Line
	4750 2350 5000 2350
$Comp
L driveshield-rescue:WR-TBL_691313710002-mechanical-connectors P4
U 1 1 5EB7EFD4
P 5200 2400
F 0 "P4" H 5278 2441 50  0000 L CNN
F 1 "WR-TBL_691313710002" H 5278 2350 50  0000 L CNN
F 2 "mechanical-connectors:WR-TBL_691313710002" H 5100 2450 50  0001 C CNN
F 3 "" H 5200 2400 50  0000 C CNN
F 4 "691313710002" H 5200 2400 50  0001 C CNN "manf#"
F 5 "1" H 5200 2400 50  0001 C CNN "check"
	1    5200 2400
	1    0    0    -1  
$EndComp
Text Label 4400 3400 0    50   ~ 0
OUT_A2
Wire Wire Line
	4750 3400 4750 2450
Wire Wire Line
	4750 1550 4750 2350
Connection ~ 1600 7450
Wire Wire Line
	1250 7450 1250 7300
Wire Wire Line
	1600 7450 1250 7450
Wire Wire Line
	1250 7100 1300 7100
Wire Wire Line
	1600 7450 1600 7400
Wire Wire Line
	1600 7100 1650 7100
Connection ~ 1600 7100
Wire Wire Line
	1600 7200 1600 7100
Wire Wire Line
	1500 7100 1600 7100
Wire Wire Line
	850  7100 1250 7100
Text Label 850  7100 0    50   ~ 0
SENSE_A
$Comp
L driveshield-rescue:R_0603-devices R4
U 1 1 5FABF08B
P 1400 7100
F 0 "R4" V 1500 7100 50  0000 C CNN
F 1 "RES 590 10% 0603" V 1600 7100 50  0000 C CNN
F 2 "resistors:R_0603" H 1400 6950 50  0001 C CNN
F 3 "" H 1400 7100 50  0000 C CNN
F 4 "ERJ-3EKF5900V" H 1400 7100 50  0001 C CNN "manf#"
F 5 "Vfull" H 1400 7100 50  0001 C CNN "variant"
F 6 "1" H 1400 7100 50  0001 C CNN "check"
	1    1400 7100
	0    1    1    0   
$EndComp
$Comp
L driveshield-rescue:R_0603-devices R5
U 1 1 5FABF085
P 1600 7300
F 0 "R5" H 1659 7346 50  0000 L CNN
F 1 "RES 430 10% 0603" H 1659 7255 50  0000 L CNN
F 2 "resistors:R_0603" H 1600 7150 50  0001 C CNN
F 3 "" H 1600 7300 50  0000 C CNN
F 4 "RC0603JR-07430RL" H 1600 7300 50  0001 C CNN "manf#"
F 5 "Vfull" H 1600 7300 50  0001 C CNN "variant"
F 6 "1" H 1600 7300 50  0001 C CNN "check"
	1    1600 7300
	1    0    0    -1  
$EndComp
$Comp
L driveshield-rescue:BSS138-transistors U2
U 1 1 5FABF07F
P 1950 7100
F 0 "U2" H 2040 7146 50  0000 L CNN
F 1 "BSS138" H 2040 7055 50  0000 L CNN
F 2 "SOT_TO:SOT-23" H 1950 7100 50  0001 C CNN
F 3 "" H 1950 7100 50  0001 C CNN
F 4 "BSS138\\,215" H 1950 7100 50  0001 C CNN "manf#"
F 5 "" H 1950 7100 50  0001 C CNN "DNP"
F 6 "Vfull" H 1950 7100 50  0001 C CNN "variant"
F 7 "1" H 1950 7100 50  0001 C CNN "check"
	1    1950 7100
	1    0    0    -1  
$EndComp
Wire Wire Line
	1950 7450 1950 7500
Connection ~ 1950 7450
Wire Wire Line
	1600 7450 1950 7450
Wire Wire Line
	1950 7300 1950 7450
Text Label 2300 6700 2    50   ~ 0
FAULT_A
$Comp
L driveshield-rescue:GND-power-supply #PWR0102
U 1 1 5FABF063
P 1950 7500
F 0 "#PWR0102" H 1950 7250 50  0001 C CNN
F 1 "GND" H 1955 7327 50  0000 C CNN
F 2 "" H 1950 7500 50  0000 C CNN
F 3 "" H 1950 7500 50  0000 C CNN
	1    1950 7500
	1    0    0    -1  
$EndComp
$Comp
L driveshield-rescue:C_0603-devices C21
U 1 1 5FABF053
P 1250 7200
F 0 "C21" H 1000 7200 50  0000 L CNN
F 1 "CAP CER 1nF 6V 0603" H 1000 7000 50  0000 L CNN
F 2 "capacitors:C_0603" H 1250 7050 50  0001 C CNN
F 3 "" H 1250 7200 50  0000 C CNN
F 4 "CC0603KRX7R9BB102" H 1250 7200 50  0001 C CNN "manf#"
F 5 "1" H 1250 7200 50  0001 C CNN "check"
	1    1250 7200
	1    0    0    -1  
$EndComp
Connection ~ 3250 7450
Wire Wire Line
	2900 7450 2900 7300
Wire Wire Line
	3250 7450 2900 7450
Text GLabel 4200 6700 2    50   Output ~ 0
MOTORS_FAULT
Wire Wire Line
	2900 7100 2950 7100
Connection ~ 2900 7100
Wire Wire Line
	3600 7450 3600 7500
Connection ~ 3600 7450
Wire Wire Line
	3250 7450 3600 7450
Wire Wire Line
	3250 7400 3250 7450
Wire Wire Line
	3600 7300 3600 7450
$Comp
L driveshield-rescue:R_0603-devices R26
U 1 1 5EE0903B
P 3600 6550
F 0 "R26" H 3659 6596 50  0000 L CNN
F 1 "RES 10k 10% 0603" H 3659 6505 50  0000 L CNN
F 2 "resistors:R_0603" H 3600 6400 50  0001 C CNN
F 3 "" H 3600 6550 50  0000 C CNN
F 4 "RC0603FR-0710KL" H 3600 6550 50  0001 C CNN "manf#"
F 5 "Vfull" H 3600 6550 50  0001 C CNN "variant"
F 6 "1" H 3600 6550 50  0001 C CNN "check"
	1    3600 6550
	1    0    0    -1  
$EndComp
Wire Wire Line
	3600 6350 3600 6450
$Comp
L driveshield-rescue:+3V3-power-supply #PWR030
U 1 1 5EF1A6B8
P 3600 6350
F 0 "#PWR030" H 3600 6200 50  0001 C CNN
F 1 "+3V3" H 3615 6523 50  0000 C CNN
F 2 "" H 3600 6350 50  0000 C CNN
F 3 "" H 3600 6350 50  0000 C CNN
	1    3600 6350
	1    0    0    -1  
$EndComp
$Comp
L driveshield-rescue:GND-power-supply #PWR031
U 1 1 5EF14364
P 3600 7500
F 0 "#PWR031" H 3600 7250 50  0001 C CNN
F 1 "GND" H 3605 7327 50  0000 C CNN
F 2 "" H 3600 7500 50  0000 C CNN
F 3 "" H 3600 7500 50  0000 C CNN
	1    3600 7500
	1    0    0    -1  
$EndComp
Wire Wire Line
	3250 7100 3300 7100
Connection ~ 3250 7100
Wire Wire Line
	3250 7200 3250 7100
Wire Wire Line
	3150 7100 3250 7100
Wire Wire Line
	2550 7100 2900 7100
Text Label 2550 7100 0    50   ~ 0
SENSE_B
$Comp
L driveshield-rescue:R_0603-devices R22
U 1 1 5ECFADA6
P 3050 7100
F 0 "R22" V 3150 7100 50  0000 C CNN
F 1 "RES 590 10% 0603" V 3250 7100 50  0000 C CNN
F 2 "resistors:R_0603" H 3050 6950 50  0001 C CNN
F 3 "" H 3050 7100 50  0000 C CNN
F 4 "ERJ-3EKF5900V" H 3050 7100 50  0001 C CNN "manf#"
F 5 "Vfull" H 3050 7100 50  0001 C CNN "variant"
F 6 "1" H 3050 7100 50  0001 C CNN "check"
	1    3050 7100
	0    1    1    0   
$EndComp
$Comp
L driveshield-rescue:R_0603-devices R25
U 1 1 5ECFA55D
P 3250 7300
F 0 "R25" H 3309 7346 50  0000 L CNN
F 1 "RES 430 10% 0603" H 3309 7255 50  0000 L CNN
F 2 "resistors:R_0603" H 3250 7150 50  0001 C CNN
F 3 "" H 3250 7300 50  0000 C CNN
F 4 "RC0603JR-07430RL" H 3250 7300 50  0001 C CNN "manf#"
F 5 "Vfull" H 3250 7300 50  0001 C CNN "variant"
F 6 "1" H 3250 7300 50  0001 C CNN "check"
	1    3250 7300
	1    0    0    -1  
$EndComp
$Comp
L driveshield-rescue:BSS138-transistors U5
U 1 1 5ECA0B19
P 3600 7100
F 0 "U5" H 3690 7146 50  0000 L CNN
F 1 "BSS138" H 3690 7055 50  0000 L CNN
F 2 "SOT_TO:SOT-23" H 3600 7100 50  0001 C CNN
F 3 "" H 3600 7100 50  0001 C CNN
F 4 "BSS138\\,215" H 3600 7100 50  0001 C CNN "manf#"
F 5 "" H 3600 7100 50  0001 C CNN "DNP"
F 6 "Vfull" H 3600 7100 50  0001 C CNN "variant"
F 7 "1" H 3600 7100 50  0001 C CNN "check"
	1    3600 7100
	1    0    0    -1  
$EndComp
$Comp
L driveshield-rescue:C_0603-devices C11
U 1 1 5EB1B0D2
P 2900 7200
F 0 "C11" H 2650 7200 50  0000 L CNN
F 1 "CAP CER 1nF 6V 0603" H 2650 7100 50  0000 L CNN
F 2 "capacitors:C_0603" H 2900 7050 50  0001 C CNN
F 3 "" H 2900 7200 50  0000 C CNN
F 4 "CC0603KRX7R9BB102" H 2900 7200 50  0001 C CNN "manf#"
F 5 "1" H 2900 7200 50  0001 C CNN "check"
	1    2900 7200
	1    0    0    -1  
$EndComp
Text Label 4450 1550 0    50   ~ 0
OUT_A1
$Sheet
S 4000 4900 1250 850 
U 5F83387E
F0 "BackEMF" 50
F1 "BackEMF.sch" 50
F2 "CH_B1" I L 4000 5500 50 
F3 "CH_B2" I L 4000 5650 50 
F4 "CH_A1" I L 4000 5050 50 
F5 "CH_A2" I L 4000 5200 50 
F6 "EMF_B" O R 5250 5550 50 
F7 "EMF_A" O R 5250 5100 50 
$EndSheet
Wire Notes Line
	6550 5900 850  5900
Text Notes 800  6300 0    50   ~ 0
Option 2 Fault Condition Flag and eurrent Sensing (backwards compatibility to FRDM-PFC). \nCurrent sensing needs to be enabled via solder jumpers on root sheet.\nTo remove both omit both.\nTo remove only  Fault flag generation omit Transistors, \npullup and Voltage divider needs amount to 1k
Wire Notes Line
	500  4750 10800 4750
Text Label 3650 5050 0    50   ~ 0
OUT_A1
Text Label 3650 5200 0    50   ~ 0
OUT_A2
Text Label 3650 5500 0    50   ~ 0
OUT_B1
Text Label 3650 5650 0    50   ~ 0
OUT_B2
Wire Notes Line
	4500 1550 4450 1550
Wire Wire Line
	3650 5050 4000 5050
Wire Wire Line
	4000 5200 3650 5200
Wire Wire Line
	3650 5500 4000 5500
Wire Wire Line
	4000 5650 3650 5650
Connection ~ 1250 7100
Wire Wire Line
	3600 6650 3600 6700
Connection ~ 3600 6700
Text GLabel 5450 5550 2    50   Output ~ 0
FEEDBACK_B
Text GLabel 5450 5100 2    50   Output ~ 0
FEEDBACK_A
Wire Wire Line
	5450 5100 5250 5100
Wire Wire Line
	5250 5550 5450 5550
Text Notes 900  5050 0    50   ~ 0
Option 1 Back EMF measurement for speed regulation,\nto remove omit
Wire Wire Line
	1950 6700 3600 6700
Wire Wire Line
	3600 6700 4200 6700
Text Label 3950 6700 2    50   ~ 0
FAULT_B
$Comp
L driveshield-rescue:Jumper_NO_Small-devices JP10
U 1 1 5F084218
P 1400 6950
F 0 "JP10" H 1400 7043 50  0000 C CNN
F 1 "Jumper_solder" H 1410 6890 50  0001 C CNN
F 2 "wire_pads:SolderJumper_2mm" H 1400 7044 50  0001 C CNN
F 3 "" H 1400 6950 50  0000 C CNN
F 4 "1" H 1400 6950 50  0001 C CNN "DNP"
	1    1400 6950
	1    0    0    -1  
$EndComp
Wire Wire Line
	1250 6950 1300 6950
Wire Wire Line
	1600 6950 1600 7100
Wire Wire Line
	1500 6950 1600 6950
Wire Wire Line
	1250 7100 1250 6950
$Comp
L driveshield-rescue:Jumper_NO_Small-devices JP11
U 1 1 5F0FB7E9
P 3050 6950
F 0 "JP11" H 3050 7043 50  0000 C CNN
F 1 "Jumper_solder" H 3060 6890 50  0001 C CNN
F 2 "wire_pads:SolderJumper_2mm" H 3050 7044 50  0001 C CNN
F 3 "" H 3050 6950 50  0000 C CNN
F 4 "1" H 3050 6950 50  0001 C CNN "DNP"
	1    3050 6950
	1    0    0    -1  
$EndComp
Wire Wire Line
	2900 6950 2950 6950
Wire Wire Line
	3250 6950 3250 7100
Wire Wire Line
	3150 6950 3250 6950
Wire Wire Line
	2900 7100 2900 6950
Wire Wire Line
	3600 6700 3600 6900
Wire Wire Line
	1950 6700 1950 6900
$EndSCHEMATC
